;	VGA Memory Map
; .COE file with binary coefficients
; Height: 32, Width: 32
memory_initialization_radix = 2;
memory_initialization_vector =
000000000000,
000000000000,
000000000000,
000000000000,
000000000000,
000000000000,
000000000000,
000000000000,
000000000000,
000000000000,
000000000000,
000000000000,
000000000000,
000000000000,
000000000000,
000000000000,
000000000000,
000000000000,
000000000000,
000000000000,
000000000000,
000000000000,
000000000000,
000000000000,
000000000000,
000000000000,
000000000000,
000000000000,
000000000000,
000000000000,
000000000000,
000000000000,
000000000000,
000000000000,
100110011001,
100110011001,
100110011001,
100110011001,
100110011001,
100110011001,
100110011001,
100110011001,
100110011001,
100110011001,
100110011001,
100110011001,
100110011001,
100110011001,
100110011001,
100110011001,
100110011001,
100110011001,
100110011001,
100110011001,
100110011001,
100110011001,
100110011001,
100110011001,
100110011001,
011101110111,
011101110111,
011101110111,
000000000000,
000000000000,
000000000000,
000000000000,
100110011001,
100110011001,
100110011001,
100110011001,
100110011001,
100110011001,
100110011001,
100110011001,
100110011001,
100110011001,
100110011001,
100110011001,
100110011001,
100110011001,
100110011001,
100110011001,
100110011001,
100110011001,
100110011001,
100110011001,
011101110111,
011101110111,
011101110111,
011101110111,
011101110111,
011101110111,
011101110111,
011101110111,
011101110111,
000000000000,
000000000000,
000000000000,
000000000000,
100110011001,
100110011001,
100110011001,
100110011001,
100110011001,
100110011001,
100110011001,
100110011001,
100110011001,
100110011001,
100110011001,
100110011001,
100110011001,
100110011001,
100110011001,
100110011001,
100110011001,
100110011001,
100110011001,
011101110111,
011101110111,
011101110111,
011101110111,
011101110111,
011101110111,
011101110111,
011101110111,
011101110111,
000000000000,
000000000000,
000000000000,
100110011001,
100110011001,
100110011001,
100110011001,
100110011001,
100110011001,
100110011001,
100110011001,
100110011001,
100110011001,
100110011001,
100110011001,
100110011001,
011101110111,
011101110111,
011101110111,
100110011001,
100110011001,
100110011001,
100110011001,
011101110111,
011101110111,
011101110111,
011101110111,
011101110111,
011101110111,
011101110111,
011101110111,
011101110111,
000000000000,
000000000000,
100110011001,
100110011001,
100110011001,
100110011001,
100110011001,
100110011001,
100110011001,
100110011001,
100110011001,
100110011001,
100110011001,
100110011001,
100110011001,
100110011001,
011101110111,
011101110111,
011101110111,
100110011001,
100110011001,
100110011001,
100110011001,
011101110111,
011101110111,
011101110111,
011101110111,
011101110111,
011101110111,
011101110111,
011101110111,
010101010101,
000000000000,
000000000000,
100110011001,
100110011001,
100110011001,
100110011001,
100110011001,
100110011001,
100110011001,
100110011001,
100110011001,
100110011001,
100110011001,
100110011001,
100110011001,
011101110111,
011101110111,
011101110111,
011101110111,
011101110111,
011101110111,
011101110111,
011101110111,
011101110111,
011101110111,
011101110111,
011101110111,
011101110111,
011101110111,
011101110111,
011101110111,
010101010101,
000000000000,
000000000000,
100110011001,
100110011001,
100110011001,
100110011001,
100110011001,
100110011001,
100110011001,
100110011001,
100110011001,
100110011001,
100110011001,
100110011001,
100110011001,
011101110111,
011101110111,
011101110111,
011101110111,
011101110111,
011101110111,
011101110111,
011101110111,
011101110111,
011101110111,
011101110111,
011101110111,
011101110111,
011101110111,
011101110111,
011101110111,
010101010101,
000000000000,
000000000000,
100110011001,
100110011001,
100110011001,
100110011001,
100110011001,
100110011001,
100110011001,
100110011001,
100110011001,
100110011001,
100110011001,
100110011001,
100110011001,
011101110111,
011101110111,
011101110111,
011101110111,
011101110111,
011101110111,
011101110111,
011101110111,
011101110111,
011101110111,
011101110111,
011101110111,
011101110111,
011101110111,
011101110111,
011101110111,
010101010101,
000000000000,
000000000000,
100110011001,
100110011001,
100110011001,
100110011001,
100110011001,
100110011001,
100110011001,
100110011001,
100110011001,
100110011001,
100110011001,
100110011001,
011101110111,
011101110111,
011101110111,
011101110111,
011101110111,
011101110111,
011101110111,
011101110111,
011101110111,
011101110111,
011101110111,
011101110111,
011101110111,
011101110111,
011101110111,
011101110111,
011101110111,
010101010101,
000000000000,
000000000000,
100110011001,
100110011001,
100110011001,
100110011001,
100110011001,
100110011001,
100110011001,
100110011001,
100110011001,
100110011001,
011101110111,
011101110111,
011101110111,
011101110111,
011101110111,
011101110111,
011101110111,
011101110111,
011101110111,
011101110111,
011101110111,
011101110111,
011101110111,
011101110111,
011101110111,
011101110111,
011101110111,
011101110111,
011101110111,
010101010101,
000000000000,
000000000000,
100110011001,
100110011001,
100110011001,
100110011001,
100110011001,
100110011001,
100110011001,
100110011001,
100110011001,
011101110111,
011101110111,
011101110111,
011101110111,
011101110111,
011101110111,
011101110111,
011101110111,
011101110111,
011101110111,
011101110111,
011101110111,
011101110111,
011101110111,
011101110111,
011101110111,
011101110111,
011101110111,
011101110111,
010101010101,
010101010101,
000000000000,
000000000000,
100110011001,
100110011001,
100110011001,
100110011001,
100110011001,
011101110111,
011101110111,
100110011001,
100110011001,
011101110111,
011101110111,
011101110111,
011101110111,
011101110111,
011101110111,
011101110111,
011101110111,
011101110111,
011101110111,
011101110111,
011101110111,
011101110111,
011101110111,
011101110111,
011101110111,
011101110111,
011101110111,
011101110111,
010101010101,
010101010101,
000000000000,
000000000000,
100110011001,
100110011001,
100110011001,
100110011001,
011101110111,
011101110111,
011101110111,
011101110111,
011101110111,
011101110111,
011101110111,
011101110111,
011101110111,
100110011001,
100110011001,
011101110111,
011101110111,
011101110111,
011101110111,
011101110111,
011101110111,
011101110111,
011101110111,
011101110111,
011101110111,
010101010101,
010101010101,
010101010101,
010101010101,
010101010101,
000000000000,
000000000000,
100110011001,
100110011001,
100110011001,
100110011001,
011101110111,
011101110111,
011101110111,
011101110111,
011101110111,
011101110111,
011101110111,
011101110111,
011101110111,
100110011001,
100110011001,
011101110111,
011101110111,
011101110111,
011101110111,
011101110111,
011101110111,
011101110111,
011101110111,
011101110111,
010101010101,
010101010101,
010101010101,
010101010101,
010101010101,
010101010101,
000000000000,
000000000000,
100110011001,
100110011001,
100110011001,
100110011001,
011101110111,
011101110111,
011101110111,
011101110111,
011101110111,
011101110111,
011101110111,
011101110111,
011101110111,
100110011001,
100110011001,
011101110111,
011101110111,
011101110111,
011101110111,
011101110111,
011101110111,
011101110111,
011101110111,
011101110111,
010101010101,
010101010101,
010101010101,
100110011001,
010101010101,
010101010101,
000000000000,
000000000000,
100110011001,
100110011001,
011101110111,
100110011001,
011101110111,
011101110111,
011101110111,
011101110111,
011101110111,
011101110111,
011101110111,
011101110111,
011101110111,
100110011001,
100110011001,
011101110111,
011101110111,
011101110111,
011101110111,
011101110111,
011101110111,
011101110111,
011101110111,
011101110111,
010101010101,
010101010101,
010101010101,
100110011001,
010101010101,
010101010101,
000000000000,
000000000000,
011101110111,
011101110111,
011101110111,
011101110111,
011101110111,
011101110111,
011101110111,
011101110111,
011101110111,
011101110111,
011101110111,
011101110111,
100110011001,
100110011001,
100110011001,
011101110111,
011101110111,
011101110111,
011101110111,
011101110111,
011101110111,
011101110111,
011101110111,
011101110111,
010101010101,
010101010101,
010101010101,
100110011001,
010101010101,
010101010101,
000000000000,
000000000000,
011101110111,
011101110111,
011101110111,
011101110111,
011101110111,
011101110111,
011101110111,
011101110111,
011101110111,
011101110111,
011101110111,
011101110111,
011101110111,
011101110111,
011101110111,
011101110111,
011101110111,
011101110111,
011101110111,
011101110111,
011101110111,
011101110111,
011101110111,
010101010101,
010101010101,
010101010101,
010101010101,
100110011001,
010101010101,
010101010101,
000000000000,
000000000000,
011101110111,
011101110111,
011101110111,
011101110111,
011101110111,
011101110111,
011101110111,
011101110111,
011101110111,
011101110111,
011101110111,
011101110111,
011101110111,
011101110111,
011101110111,
011101110111,
011101110111,
011101110111,
011101110111,
011101110111,
011101110111,
011101110111,
011101110111,
010101010101,
010101010101,
010101010101,
010101010101,
010101010101,
010101010101,
010101010101,
000000000000,
000000000000,
011101110111,
011101110111,
011101110111,
011101110111,
010101010101,
010101010101,
011101110111,
011101110111,
011101110111,
011101110111,
011101110111,
011101110111,
011101110111,
011101110111,
011101110111,
011101110111,
011101110111,
011101110111,
011101110111,
011101110111,
011101110111,
011101110111,
011101110111,
010101010101,
010101010101,
010101010101,
010101010101,
010101010101,
010101010101,
010101010101,
000000000000,
000000000000,
011101110111,
011101110111,
011101110111,
011101110111,
011101110111,
011101110111,
011101110111,
011101110111,
011101110111,
011101110111,
011101110111,
011101110111,
011101110111,
011101110111,
011101110111,
011101110111,
011101110111,
011101110111,
011101110111,
011101110111,
011101110111,
011101110111,
011101110111,
010101010101,
010101010101,
010101010101,
010101010101,
010101010101,
010101010101,
010101010101,
000000000000,
000000000000,
011101110111,
011101110111,
011101110111,
011101110111,
011101110111,
011101110111,
011101110111,
011101110111,
011101110111,
011101110111,
011101110111,
011101110111,
011101110111,
011101110111,
011101110111,
011101110111,
011101110111,
011101110111,
011101110111,
011101110111,
011101110111,
011101110111,
011101110111,
010101010101,
010101010101,
010101010101,
010101010101,
010101010101,
010101010101,
010101010101,
000000000000,
000000000000,
011101110111,
011101110111,
011101110111,
011101110111,
011101110111,
011101110111,
011101110111,
011101110111,
011101110111,
011101110111,
011101110111,
011101110111,
011101110111,
011101110111,
011101110111,
011101110111,
011101110111,
011101110111,
011101110111,
011101110111,
011101110111,
011101110111,
011101110111,
010101010101,
010101010101,
010101010101,
010101010101,
010101010101,
010101010101,
010101010101,
000000000000,
000000000000,
011101110111,
011101110111,
011101110111,
011101110111,
010101010101,
011101110111,
011101110111,
011101110111,
010101010101,
011101110111,
010101010101,
010101010101,
010101010101,
010101010101,
010101010101,
010101010101,
010101010101,
010101010101,
011101110111,
010101010101,
010101010101,
010101010101,
010101010101,
010101010101,
100110011001,
100110011001,
100110011001,
010101010101,
010101010101,
010101010101,
000000000000,
000000000000,
011101110111,
011101110111,
011101110111,
011101110111,
010101010101,
011101110111,
011101110111,
011101110111,
010101010101,
010101010101,
010101010101,
010101010101,
010101010101,
010101010101,
010101010101,
010101010101,
010101010101,
010101010101,
010101010101,
010101010101,
010101010101,
010101010101,
010101010101,
010101010101,
100110011001,
100110011001,
100110011001,
010101010101,
010101010101,
010101010101,
000000000000,
000000000000,
011101110111,
011101110111,
011101110111,
011101110111,
010101010101,
011101110111,
011101110111,
011101110111,
010101010101,
010101010101,
010101010101,
010101010101,
010101010101,
010101010101,
010101010101,
010101010101,
010101010101,
010101010101,
010101010101,
010101010101,
010101010101,
010101010101,
010101010101,
010101010101,
100110011001,
100110011001,
100110011001,
010101010101,
010101010101,
010101010101,
000000000000,
000000000000,
011101110111,
010101010101,
010101010101,
010101010101,
010101010101,
011101110111,
011101110111,
011101110111,
010101010101,
010101010101,
010101010101,
010101010101,
010101010101,
010101010101,
010101010101,
010101010101,
010101010101,
010101010101,
010101010101,
010101010101,
010101010101,
010101010101,
010101010101,
010101010101,
100110011001,
100110011001,
100110011001,
010101010101,
010101010101,
010101010101,
000000000000,
000000000000,
010101010101,
010101010101,
010101010101,
010101010101,
010101010101,
010101010101,
010101010101,
010101010101,
010101010101,
010101010101,
010101010101,
010101010101,
010101010101,
010101010101,
010101010101,
010101010101,
010101010101,
010101010101,
010101010101,
010101010101,
010101010101,
010101010101,
010101010101,
010101010101,
010101010101,
010101010101,
010101010101,
010101010101,
010101010101,
010101010101,
000000000000,
000000000000,
010101010101,
010101010101,
010101010101,
010101010101,
010101010101,
010101010101,
010101010101,
010101010101,
010101010101,
010101010101,
010101010101,
010101010101,
010101010101,
010101010101,
010101010101,
010101010101,
010101010101,
010101010101,
010101010101,
010101010101,
010101010101,
010101010101,
010101010101,
010101010101,
010101010101,
010101010101,
010101010101,
010101010101,
010101010101,
000000000000,
000000000000,
000000000000,
000000000000,
010101010101,
010101010101,
010101010101,
010101010101,
010101010101,
010101010101,
010101010101,
010101010101,
010101010101,
010101010101,
010101010101,
010101010101,
010101010101,
010101010101,
010101010101,
010101010101,
010101010101,
010101010101,
010101010101,
010101010101,
010101010101,
010101010101,
010101010101,
010101010101,
010101010101,
010101010101,
010101010101,
000000000000,
000000000000,
000000000000,
000000000000,
000000000000,
000000000000,
000000000000,
000000000000,
000000000000,
000000000000,
000000000000,
000000000000,
000000000000,
000000000000,
000000000000,
000000000000,
000000000000,
000000000000,
000000000000,
000000000000,
000000000000,
000000000000,
000000000000,
000000000000,
000000000000,
000000000000,
000000000000,
000000000000,
000000000000,
000000000000,
000000000000,
000000000000,
000000000000,
000000000000,
000000000000;