000000000000
000000000000
000000000000
000000000000
000000000000
000000000000
000000000000
000000000000
000000000000
000000000000
000000000000
000000000000
000000000000
000000000000
000000000000
000000000000
000000000000
000000000000
000000000000
000000000000
000000000000
000000000000
000000000000
000000000000
000000000000
000000000000
000000000000
000000000000
000000000000
000000000000
000000000000
000000000000
000000000000
000000000000
000000000000
000000000000
000000000000
000000000000
000000000000
000000000000
000000000000
000000000000
000000000000
000000000000
000000000000
000000000000
000000000000
000000000000
000000000000
000000000000
000000000000
000000000000
000000000000
000000000000
000000000000
000000000000
000000000000
000000000000
000000000000
000000000000
000000000000
000000000000
000000000000
000000000000
000000000000
000000000000
000000000000
000000000000
000000000000
000000000000
000000000000
000000000000
000000000000
000000000000
000000000000
000000000000
000000000000
000000000000
000000000000
000000000000
000000000000
000000000000
000000000000
000000000000
000000000000
000000000000
000000000000
000000000000
000000000000
000000000000
000000000000
000000000000
000000000000
000000000000
000000000000
000000000000
000000000000
000000000000
000000000000
000000000000
000000000000
000000000000
000000000000
000000000000
000000000000
000000000000
000000000000
000000000000
000100010001
000100010001
000100010001
000100010001
000100010001
000100010001
000100010001
000100010001
000000000000
000000000000
000000000000
000000000000
000000000000
000000000000
000000000000
000000000000
000000000000
000000000000
000000000000
000000000000
000000000000
000000000000
000000000000
000000000000
000000000000
000000000000
000000000000
000000000000
000000000000
000000000000
000000000000
000100010001
101010101011
110011001101
110011001101
110011001101
110011001101
110011001101
110011001101
101010101011
000100010001
000000000000
000000000000
000000000000
000000000000
000000000000
000000000000
000000000000
000000000000
000000000000
000000000000
000000000000
000000000000
000000000000
000000000000
000000000000
000000000000
000000000000
000000000000
000000000000
000000000000
000000000000
000000010000
001000100001
101110111011
110011011101
110111011110
110111011110
110111011110
110111011110
111011011110
110011001101
001100110011
000100010001
000000000000
000000000000
000000000000
000000000000
000000000000
000000000000
000000000000
000000000000
000000000000
000000000000
000000000000
000000000000
000000000000
000000000000
000000000000
000000000000
000000000000
000000000000
000000000000
000000010000
010001110010
010110000010
010001110010
010101110100
110011001101
110111011110
110111011110
110111011110
110111011110
110111011110
110011001101
101010101011
000100010001
000000000000
000000000000
000000000000
000000000000
000000000000
000000000000
000000000000
000000000000
000000000000
000000000000
000000000000
000000000000
000000000000
000000000000
000000000000
000000000000
000000000000
000000010000
000100100000
010110000010
010110000010
001101100001
010001100010
110011001101
110111011110
110111011110
110111011110
110111011110
110111011110
110011011101
101110111011
001000100001
000000010000
000000000000
000000000000
000000000000
000000000000
000000000000
000000000000
000000000000
000000000000
000000000000
000000000000
000000000000
000000000000
000000000000
000000000000
000000000000
000000010000
010001110010
010110000010
010001100001
001101100001
001101100001
010001100010
110011001101
110111011110
110111011110
110111011110
110111011110
110011001101
010101110100
010001110010
010110000010
010001110010
000000010000
000000000000
000000000000
000000000000
000000000000
000000000000
000000000000
000000000000
000000000000
000000000000
000000000000
000000000000
000000000000
000000000000
000000000000
000000010000
010110000010
011010010011
001101100001
001101010001
001101010001
010001100010
110011001101
110111011110
110111011110
110111011110
110111011110
110011001101
010001100010
001101100001
011010010011
010110000010
000000010000
000000000000
000000000000
000000000000
000000000000
000000000000
000000000000
000000000000
000000000000
000000000000
000000000000
000000000000
000000000000
000000000000
000000000000
000000010000
010110000010
011010010011
001101100001
001101010001
001101010001
010001100010
110011001101
110111011110
110111011110
110111011110
110111011110
110011001101
010001100010
001101100001
011010010011
010110000010
000000010000
000000000000
000000000000
000000000000
000000000000
000000000000
000000000000
000000000000
000000000000
000000000000
000000000000
000000000000
000000000000
000000000000
000100010001
001000100001
010110000010
010110000010
001101100001
001101100001
010001100010
010101110100
110011001101
110111011110
110111011110
110111011110
110111011110
110011001101
010001100010
001101100001
010110000010
010110000010
000100100000
000000010000
000000000000
000000000000
000000000000
000000000000
000000000000
000000000000
000000000000
000000000000
000000000000
000000000000
000000000000
000100010001
101010101011
101110111011
010001110010
001101100001
001101010001
010001100010
101111001011
110011011101
110111011110
110111011110
110111011110
110111011110
110111011110
110011001101
010001100010
001101010001
001101100001
010001100001
010110000010
010001110010
000000010000
000000000000
000000000000
000000000000
000000000000
000000000000
000000000000
000000000000
000000000000
000000000000
000000000000
000100010001
110011001101
110011011101
010101110100
010001100010
010001100010
010101110100
110011011101
110111011110
110111011110
110111011110
110111011110
110111011110
110111011110
110011001101
010101110100
010001100010
001101100001
001101100001
011010010011
010110000010
000000010000
000000000000
000000000000
000000000000
000000000000
000000000000
000000000000
000000000000
000000000000
000000000000
000000000000
000100010001
110011001101
110111011110
110011001101
110011001101
110011001101
110011001101
110111011110
110111011110
110111011110
110111011110
110111011110
110111011110
110111011110
110111011110
110011011101
101111001011
010001100010
001101100001
010110000011
010110000010
000000010000
000000000000
000000000000
000000000000
000000000000
000000000000
000000000000
000000000000
000000000000
000000000000
000100010001
001100110011
110011001101
110111011110
110111011110
110111011110
110111011110
110111011110
110011001101
110011001101
110011001101
110011001101
110011001101
110011001101
110111011110
110111011110
110111011110
110011011101
010101110100
010101110011
011010010100
011010000100
001000100010
000100010001
000000000000
000000000000
000000000000
000000000000
000000000000
000000000000
000000000000
000100010001
101010101011
110011001101
110111011110
110111011110
110111011110
110111011110
110111011110
110011011101
010101110100
010001100010
010001100010
010001100010
010001100010
010101110100
110011011101
110111011110
110111011110
110111011110
110011001101
110011001101
110011011101
110011011101
110011001101
101010101011
000100010001
000000000000
000000000000
000000000000
000000000000
000000000000
000000000000
000100010001
110011001101
111011011110
110111011110
110111011110
110111011110
110111011110
110011011101
101111001011
010001100010
001101010001
001101010001
001101010001
001101010001
010001100010
101111001011
110011011101
110111011110
110111011110
110111011110
110111011110
110111011110
110111011110
111011011111
110011001101
000100010001
000000000000
000000000000
000000000000
000000000000
000000000000
000000000000
000100010001
110011001101
110111011110
110111011110
110111011110
110111011110
110011001101
010101110100
010001100010
001101100001
001101100001
001101100001
001101100001
001101100001
001101100001
010001100010
010101110100
110011001101
110111011110
110111011110
110111011110
110111011110
110111011110
111011011110
110011001101
000100010001
000000000000
000000000000
000000000000
000000000000
000000000000
000000000000
000100010001
110011001101
110111011110
110111011110
110111011110
110111011110
110011001101
010001100010
001101010001
001101100001
001101100001
001101100001
001101100001
001101100001
001101100001
001101010001
010001100010
110011001101
110111011110
110111011110
110111011110
110111011110
110111011110
110111011101
101110111011
000100010001
000000000000
000000000000
000000000000
000000000000
000000000000
000000000000
000100010001
110011001101
111011011110
110111011110
110111011110
110111011110
110011001101
010001100010
001101010001
001101100001
001101100001
001101100001
001101100001
001101100001
001101100001
001101010001
010001100010
110011001101
110111011110
110111011110
110111011110
110111011110
110111011101
100010100101
011010000100
000000010000
000000000000
000000000000
000000000000
000000000000
000000000000
000000000000
000100010001
101110111011
110111011101
110011001101
110011001101
110111011110
110011001101
010001100010
001101010001
001101100001
001101100001
001101100001
001101100001
001101100001
001101100001
001101010001
010001100010
110011001101
110111011110
110111011110
110111011110
110111011110
110011011101
011110010100
010110000010
000000010000
000000000000
000000000000
000000000000
000000000000
000000000000
000000000000
000000010000
011010000100
011110010100
010101110011
010101110100
110011011101
110011001101
010001100010
001101010001
001101100001
001101100001
001101100001
001101100001
001101100001
001101100001
001101010001
010001100010
110011001101
110111011110
110111011110
110111011110
110111011110
110111011101
011110100100
010110000010
000000010000
000000000000
000000000000
000000000000
000000000000
000000000000
000000000000
000000010000
010001110010
010101110010
001101100001
010001100010
101111001011
101111001100
010101110100
010001100010
001101100001
001101100001
001101100001
001101100001
001101100001
001101100001
010001100010
010101110100
110011001101
110111011110
110111011110
110111011110
110111011101
110011001100
011010000100
010001110010
000000010000
000000000000
000000000000
000000000000
000000000000
000000000000
000000000000
000000000000
000000010000
000100010000
001101010001
001101100001
010001100010
010101110100
101111001100
101111001011
010001100010
001101010001
001101010001
001101010001
001101010001
010001100010
101111001011
110011011101
110111011110
110111011110
110111011110
110111011101
100010100101
011010000100
000100100000
000000010000
000000000000
000000000000
000000000000
000000000000
000000000000
000000000000
000000000000
000000000000
000000000000
000000000000
001101010001
001101100001
001101010001
010001100010
110011001101
110011011101
010101110100
010001100010
010001100010
010001100010
010001100010
010101110100
110011011101
110111011110
110111011110
110111011110
110111011110
110011011101
011110010100
010110000010
000000010000
000000000000
000000000000
000000000000
000000000000
000000000000
000000000000
000000000000
000000000000
000000000000
000000000000
000000010000
010101110010
010110000010
001101100001
010001100010
110011001101
110111011110
110011001101
110011001101
110011001101
110011001101
110011001101
110011001101
110111011110
110111011110
110111011110
110111011110
110111011110
110011011101
011110100100
010110000010
000000010000
000000000000
000000000000
000000000000
000000000000
000000000000
000000000000
000000000000
000000000000
000000000000
000000000000
000000010000
010001110010
010110000010
010001100001
010101110011
110011001101
110111011110
110111011110
110111011110
110111011110
110111011110
110111011110
110111011110
110111011110
110111011110
110111011110
110111011110
110111011110
110011011101
011010000100
010001110010
000000010000
000000000000
000000000000
000000000000
000000000000
000000000000
000000000000
000000000000
000000000000
000000000000
000000000000
000000000000
000000010000
000100100000
010110000010
011110010100
110111011101
110111011110
110111011110
110111011110
110111011110
110111011110
110111011110
110111011110
110111011110
110111011110
110111011110
110111011110
111011011111
110011001101
001000100010
000000010000
000000000000
000000000000
000000000000
000000000000
000000000000
000000000000
000000000000
000000000000
000000000000
000000000000
000000000000
000000000000
000000000000
000000010000
010001110010
011010000100
101110111011
110011001101
110111011110
110111011110
110111011110
110111011110
110111011110
110111011110
110111011110
110111011110
110011001101
110011001101
110011001101
101010101011
000100010001
000000000000
000000000000
000000000000
000000000000
000000000000
000000000000
000000000000
000000000000
000000000000
000000000000
000000000000
000000000000
000000000000
000000000000
000000000000
000000010000
000000010000
000100010001
001100110011
110011001101
111011011110
110111011110
110111011110
110111011110
110111011110
111011011110
110011001101
001100110011
000100010001
000100010001
000100010001
000000000000
000000000000
000000000000
000000000000
000000000000
000000000000
000000000000
000000000000
000000000000
000000000000
000000000000
000000000000
000000000000
000000000000
000000000000
000000000000
000000000000
000000000000
000000000000
000100010001
101010101011
110011001101
110011001101
110011001101
110011001101
110011001101
110011001101
101010101011
000100010001
000000000000
000000000000
000000000000
000000000000
000000000000
000000000000
000000000000
000000000000
000000000000
000000000000
000000000000
000000000000
000000000000
000000000000
000000000000
000000000000
000000000000
000000000000
000000000000
000000000000
000000000000
000000000000
000000000000
000100010001
000100010001
000100010001
000100010001
000100010001
000100010001
000100010001
000100010001
000000000000
000000000000
000000000000
000000000000
000000000000
000000000000
000000000000
000000000000
000000000000
000000000000
000000000000
000000000000
000000000000
000000000000
000000000000
000000000000
000000000000
000000000000
000000000000
000000000000
000000000000
000000000000
000000000000
000000000000
000000000000
000000000000
000000000000
000000000000
000000000000
000000000000
000000000000
000000000000
000000000000
000000000000
000000000000
000000000000
000000000000
000000000000
000000000000
000000000000
000000000000
000000000000
000000000000
000000000000
000000000000
000000000000
000000000000
000000000000
000000000000
000000000000
000000000000
000000000000
000000000000
000000000000
000000000000
000000000000
000000000000
000000000000
000000000000
000000000000
000000000000
000000000000
000000000000
000000000000
000000000000
000000000000
000000000000
000000000000
000000000000
000000000000
000000000000
000000000000
000000000000
000000000000
000000000000
000000000000
000000000000
000000000000
000000000000
000000000000
000000000000
000000000000
000000000000
000000000000
000000000000
000000000000
000000000000
000000000000
000000000000
000000000000
000000000000
000000000000
000000000000
000000000000
000000000000
000000000000
000000000000
000000000000
000000000000
000000000000
000000000000
000000000000
000000000000
000000000000
000000000000
000000000000
000000000000
000000000000
