# compile verilog/system verilog design source files
verilog xil_defaultlib  --include "../../../../class_project.gen/sources_1/ip/clk_wiz_0" \
"../../../../class_project.srcs/sources_1/new/vga_out.v" \
"../../../../class_project.srcs/sim_1/new/pixelcount_tb.v" \

# compile glbl module
verilog xil_defaultlib "glbl.v"

# Do not sort compile order
nosort
