000000000000
000000000000
000000000000
000000000000
000000000000
000000000000
000000000000
000000000000
000000000000
000000000000
000000000000
000000000000
000000000000
000000000000
000000000000
000000000000
000000000000
000000000000
000000000000
000000000000
000000000000
000000000000
000000000000
000000000000
000000000000
000000000000
000000000000
000000000000
000000000000
000000000000
000000000000
000000000000
000000000000
000000000000
110011011111
110011011111
110011011111
110011011111
110011011111
001100110111
001100110111
001100110111
001100110111
001100110111
001100110111
001100110111
001100110111
001100110111
001100110111
001100110111
001100110111
001100110111
001100110111
001100110111
001100110111
001100110111
001100110111
001100110111
001100110111
001100110111
001100110111
001100110111
000000000000
000000000000
000000000000
110011011111
110011011111
110011011111
001100110111
001100110111
001100110111
001100110111
001100110111
001100110111
001100110111
001100110111
001100110111
001100110111
001100110111
001100110111
001100110111
001100110111
001100110111
001100110111
001100110111
001100110111
001100110111
001100110111
001100110111
001100110111
001100110111
001100110111
001100110111
001100110111
001100110111
000000000000
000000000000
110011011111
001100110111
110011011111
001100110111
001100110111
011001101011
011001101011
011001101011
011001101011
011001101011
011001101011
011001101011
011001101011
011001101011
011001101011
011001101011
011001101011
011001101011
011001101011
011001101011
011001101011
011001101011
011001101011
011001101011
001100110111
011001101011
001100110111
001100110111
001100110111
001100110111
000000000000
000000000000
110011011111
001100110111
001100110111
001100110111
011001101011
011001101011
011001101011
011001101011
011001101011
011001101011
011001101011
011001101011
011001101011
011001101011
011001101011
011001101011
011001101011
011001101011
011001101011
011001101011
011001101011
011001101011
011001101011
011001101011
011001101011
011001101011
011001101011
001100110111
001100110111
001100110111
000000000000
000000000000
110011011111
001100110111
001100110111
001100110111
011001101011
011001101011
011001101011
011001101011
011001101011
011001101011
011001101011
011001101011
011001101011
011001101011
011001101011
011001101011
011001101011
011001101011
011001101011
011001101011
011001101011
011001101011
011001101011
011001101011
011001101011
011001101011
011001101011
001100110111
001100110111
001100110111
000000000000
000000000000
110011011111
001100110111
001100110111
001100110111
011001101011
011001101011
011001101011
011001101011
011001101011
011001101011
011001101011
011001101011
011001101011
011001101011
011001101011
011001101011
011001101011
011001101011
011001101011
011001101011
011001101011
011001101011
011001101011
011001101011
011001101011
011001101011
011001101011
001100110111
001100110111
001100110111
000000000000
000000000000
110011011111
001100110111
001100110111
001100110111
011001101011
011001101011
011001101011
000000000000
000000000000
011001101011
011001101011
011001101011
011001101011
011001101011
011001101011
011001101011
011001101011
011001101011
011001101011
011001101011
011001101011
000000000000
000000000000
011001101011
011001101011
011001101011
011001101011
001100110111
001100110111
001100110111
000000000000
000000000000
001100110111
001100110111
001100110111
001100110111
011001101011
011001101011
011001101011
000000000000
000000000000
011001101011
011001101011
011001101011
011001101011
011001101011
011001101011
011001101011
011001101011
011001101011
011001101011
011001101011
011001101011
000000000000
000000000000
011001101011
011001101011
011001101011
011001101011
001100110111
001100110111
001100110111
000000000000
000000000000
001100110111
001100110111
001100110111
001100110111
011001101011
011001101011
011001101011
000000000000
000000000000
011001101011
011001101011
011001101011
011001101011
011001101011
011001101011
011001101011
011001101011
011001101011
011001101011
011001101011
011001101011
000000000000
000000000000
011001101011
011001101011
011001101011
011001101011
001100110111
001100110111
001100110111
000000000000
000000000000
110011011111
001100110111
001100110111
001100110111
011001101011
011001101011
011001101011
000000000000
000000000000
011001101011
011001101011
011001101011
011001101011
011001101011
011001101011
011001101011
011001101011
011001101011
011001101011
011001101011
011001101011
000000000000
000000000000
011001101011
011001101011
011001101011
011001101011
001100110111
001100110111
001100110111
000000000000
000000000000
001100110111
001100110111
001100110111
001100110111
011001101011
011001101011
011001101011
000000000000
000000000000
011001101011
011001101011
011001101011
011001101011
011001101011
011001101011
011001101011
011001101011
011001101011
011001101011
011001101011
011001101011
000000000000
000000000000
011001101011
011001101011
011001101011
011001101011
001100110111
001100110111
001100110111
000000000000
000000000000
001100110111
001100110111
001100110111
001100110111
011001101011
011001101011
011001101011
000000000000
000000000000
011001101011
011001101011
011001101011
011001101011
011001101011
011001101011
011001101011
011001101011
011001101011
011001101011
011001101011
011001101011
000000000000
000000000000
011001101011
011001101011
011001101011
011001101011
001100110111
001100110111
001100110111
000000000000
000000000000
001100110111
001100110111
001100110111
001100110111
011001101011
011001101011
011001101011
011001101011
011001101011
011001101011
011001101011
011001101011
011001101011
011001101011
011001101011
011001101011
011001101011
011001101011
011001101011
011001101011
011001101011
011001101011
011001101011
011001101011
011001101011
011001101011
011001101011
001100110111
001100110111
001100110111
000000000000
000000000000
001100110111
001100110111
001100110111
001100110111
011001101011
011001101011
011001101011
011001101011
011001101011
011001101011
011001101011
011001101011
011001101011
011001101011
011001101011
011001101011
011001101011
011001101011
011001101011
011001101011
011001101011
011001101011
011001101011
011001101011
011001101011
011001101011
011001101011
001100110111
001100110111
001100110111
000000000000
000000000000
001100110111
001100110111
001100110111
001100110111
011001101011
011001101011
011001101011
011001101011
011001101011
011001101011
011001101011
011001101011
011001101011
011001101011
011001101011
011001101011
011001101011
011001101011
011001101011
011001101011
011001101011
011001101011
011001101011
011001101011
011001101011
011001101011
011001101011
001100110111
001100110111
001100110111
000000000000
000000000000
000000000000
001100110111
001100110111
001100110111
011001101011
011001101011
011001101011
011001101011
011001101011
011001101011
011001101011
011001101011
011001101011
011001101011
011001101011
011001101011
011001101011
011001101011
011001101011
011001101011
011001101011
011001101011
011001101011
011001101011
011001101011
011001101011
011001101011
001100110111
001100110111
001100110111
000000000000
000000000000
000000000000
001100110111
001100110111
001100110111
011001101011
011001101011
011001101011
011001101011
011001101011
011001101011
011001101011
011001101011
011001101011
011001101011
011001101011
011001101011
011001101011
011001101011
011001101011
011001101011
011001101011
011001101011
011001101011
011001101011
011001101011
011001101011
011001101011
001100110111
001100110111
001100110111
000000000000
000000000000
001100110111
001100110111
001100110111
001100110111
011001101011
011001101011
011001101011
011001101011
011001101011
011001101011
011001101011
011001101011
011001101011
011001101011
011001101011
011001101011
011001101011
011001101011
011001101011
011001101011
011001101011
011001101011
011001101011
011001101011
011001101011
011001101011
011001101011
001100110111
001100110111
001100110111
000000000000
000000000000
001100110111
001100110111
001100110111
001100110111
011001101011
011001101011
011001101011
011001101011
011001101011
011001101011
011001101011
011001101011
011001101011
011001101011
011001101011
011001101011
011001101011
011001101011
011001101011
011001101011
011001101011
011001101011
011001101011
011001101011
011001101011
011001101011
011001101011
001100110111
001100110111
001100110111
000000000000
000000000000
001100110111
001100110111
001100110111
001100110111
011001101011
011001101011
011001101011
011001101011
011001101011
011001101011
011001101011
011001101011
011001101011
011001101011
011001101011
011001101011
011001101011
011001101011
011001101011
011001101011
011001101011
011001101011
011001101011
011001101011
011001101011
011001101011
011001101011
001100110111
001100110111
001100110111
000000000000
000000000000
001100110111
001100110111
001100110111
001100110111
011001101011
011001101011
011001101011
011001101011
011001101011
011001101011
011001101011
011001101011
011001101011
011001101011
011001101011
011001101011
011001101011
011001101011
011001101011
011001101011
011001101011
011001101011
011001101011
011001101011
011001101011
011001101011
011001101011
001100110111
001100110111
001100110111
000000000000
000000000000
001100110111
001100110111
001100110111
001100110111
011001101011
011001101011
011001101011
011001101011
011001101011
011001101011
011001101011
011001101011
011001101011
011001101011
011001101011
011001101011
011001101011
011001101011
011001101011
011001101011
011001101011
011001101011
011001101011
011001101011
011001101011
011001101011
011001101011
001100110111
001100110111
001100110111
000000000000
000000000000
001100110111
001100110111
001100110111
001100110111
001100110111
011001101011
011001101011
011001101011
011001101011
011001101011
011001101011
011001101011
011001101011
011001101011
011001101011
011001101011
011001101011
011001101011
011001101011
011001101011
011001101011
011001101011
011001101011
011001101011
011001101011
011001101011
011001101011
001100110111
001100110111
001100110111
000000000000
000000000000
001100110111
001100110111
001100110111
001100110111
001100110111
001100110111
011001101011
011001101011
011001101011
011001101011
011001101011
011001101011
011001101011
011001101011
011001101011
011001101011
011001101011
011001101011
011001101011
011001101011
011001101011
011001101011
011001101011
011001101011
011001101011
011001101011
001100110111
001100110111
001100110111
001100110111
000000000000
000000000000
001100110111
001100110111
001100110111
001100110111
001100110111
001100110111
001100110111
011001101011
011001101011
011001101011
011001101011
011001101011
011001101011
011001101011
011001101011
011001101011
011001101011
011001101011
011001101011
011001101011
011001101011
011001101011
011001101011
011001101011
011001101011
001100110111
001100110111
001100110111
001100110111
001100110111
000000000000
000000000000
001100110111
001100110111
001100110111
001100110111
001100110111
001100110111
001100110111
001100110111
001100110111
001100110111
001100110111
001100110111
001100110111
001100110111
001100110111
001100110111
001100110111
001100110111
001100110111
001100110111
001100110111
001100110111
001100110111
001100110111
001100110111
001100110111
001100110111
001100110111
001100110111
001100110111
000000000000
000000000000
001100110111
001100110111
001100110111
001100110111
001100110111
001100110111
001100110111
001100110111
001100110111
001100110111
001100110111
001100110111
001100110111
001100110111
001100110111
001100110111
001100110111
001100110111
001100110111
001100110111
001100110111
001100110111
001100110111
001100110111
001100110111
001100110111
001100110111
001100110111
001100110111
001100110111
000000000000
000000000000
001100110111
001100110111
001100110111
001100110111
001100110111
001100110111
001100110111
001100110111
001100110111
001100110111
001100110111
001100110111
001100110111
001100110111
001100110111
001100110111
001100110111
001100110111
001100110111
001100110111
001100110111
001100110111
001100110111
001100110111
001100110111
001100110111
001100110111
001100110111
001100110111
001100110111
000000000000
000000000000
000000000000
001100110111
001100110111
001100110111
001100110111
001100110111
001100110111
001100110111
001100110111
001100110111
001100110111
001100110111
001100110111
001100110111
001100110111
001100110111
001100110111
001100110111
001100110111
001100110111
001100110111
001100110111
001100110111
001100110111
001100110111
001100110111
001100110111
001100110111
001100110111
000000000000
000000000000
000000000000
000000000000
000000000000
000000000000
000000000000
000000000000
000000000000
000000000000
000000000000
000000000000
000000000000
000000000000
000000000000
000000000000
000000000000
000000000000
000000000000
000000000000
000000000000
000000000000
000000000000
000000000000
000000000000
000000000000
000000000000
000000000000
000000000000
000000000000
000000000000
000000000000
000000000000
000000000000
000000000000
000000000000
000000000000
000000000000
000000000000
000000000000
000000000000
000000000000
000000000000
000000000000
000000000000
000000000000
000000000000
000000000000
000000000000
000000000000
000000000000
000000000000
000000000000
000000000000
000000000000
000000000000
000000000000
000000000000
000000000000
000000000000
000000000000
000000000000
000000000000
000000000000
000000000000
000000000000
