;	VGA Memory Map
; .COE file with hex coefficients
; Height: 42, Width: 32
memory_initialization_radix = 2;
memory_initialization_vector =
000000000000,
000000000000,
000000000000,
000000000000,
000000000000,
000000000000,
000000000000,
000000000000,
000000000000,
000000000000,
000000000000,
000000000000,
000000000000,
000000000000,
000000000000,
000000000000,
000000000000,
000000000000,
000000000000,
000000000000,
000000000000,
000000000000,
000000000000,
000000000000,
000000000000,
000000000000,
000000000000,
000000000000,
000000000000,
000000000000,
000000000000,
000000000000,
000000000000,
000000000000,
000000000000,
000000000000,
000000000000,
000000000000,
000000000000,
000000000000,
000000000000,
000000000000,
000000000000,
000000000000,
000000000000,
000000000000,
000000000000,
000000000000,
000000000000,
000000000000,
000000000000,
000000000000,
000000000000,
000000000000,
000000000000,
000000000000,
000000000000,
000000000000,
000000000000,
000000000000,
000000000000,
000000000000,
000000000000,
000000000000,
000000000000,
000000000000,
000000000000,
000000000000,
000000000000,
000000000000,
000000000000,
000000000000,
000000000000,
000000000000,
000000000000,
000000000000,
000000000000,
000000000000,
000000000000,
000000000000,
000000000000,
000000000000,
000000000000,
000000000000,
000000000000,
000000000000,
000000000000,
000000000000,
000000000000,
000000000000,
000000000000,
000000000000,
000000000000,
000000000000,
000000000000,
000000000000,
000000000000,
000000000000,
000000000000,
000000000000,
000000000000,
000000000000,
000000000000,
000000000000,
000000000000,
000000000000,
000000000000,
000000000000,
000000000000,
000000000000,
000000000000,
000000000000,
000000000000,
000000000000,
000000000000,
000000000000,
000000000000,
000000000000,
000000000000,
000000000000,
000000000000,
000000000000,
000000000000,
000000000000,
000000000000,
000000000000,
000000000000,
000000000000,
000000000000,
000000000000,
000000000000,
000000000000,
000000000000,
000000000000,
000000000000,
000000000000,
000000000000,
000000000000,
000000000000,
000000000000,
000000000000,
000000000000,
000000000000,
000000000000,
000000000000,
000000000000,
000000000000,
000000000000,
000000000000,
000000000000,
000000000000,
000000000000,
000000000000,
000000000000,
000000000000,
000000000000,
000000000000,
000000000000,
000000000000,
000000000000,
000000000000,
000000000000,
000000000000,
000000000000,
000000000000,
000000000000,
000000000000,
000000000000,
000000000000,
000000000000,
000000000000,
000000000000,
000000000000,
000000000000,
000000000000,
000000000000,
000000000000,
000000000000,
000000000000,
000000000000,
000000000000,
000000000000,
000000000000,
000000000000,
000000000000,
000000000000,
000000000000,
000000000000,
000000000000,
000000000000,
000000000000,
000000000000,
000000000000,
000000000000,
000000000000,
000000000000,
000000000000,
000000000000,
000000000000,
000000000000,
000000000000,
000000000000,
000000000000,
000000000000,
000000000000,
000000000000,
000000000000,
000000000000,
000000110000,
000000000000,
000000000000,
000001010000,
000000000000,
000000000000,
000001010000,
000000000000,
000000000000,
000000000000,
000000000000,
000000000000,
000000000000,
000000000000,
000000000000,
000000000000,
000000000000,
000000000000,
000000000000,
000000000000,
000000000000,
000000000000,
000000000000,
000000000000,
000000000000,
000000000000,
000000000000,
000000000000,
000000000000,
000000000000,
000000000000,
000000100000,
000000000000,
000010100000,
000011110000,
000000000000,
000010100000,
000011110000,
000000000000,
000001010000,
000000000000,
000000000000,
000000000000,
000000000000,
000000000000,
000000000000,
000000000000,
000000000000,
000000000000,
000000000000,
000000000000,
000000000000,
000000000000,
000000000000,
000000000000,
000000000000,
000000000000,
000000000000,
000000000000,
000000000000,
000000000000,
000000000000,
000000000000,
000000000000,
000001100000,
000010100000,
111111111111,
111111111111,
111111111111,
111111111111,
000011110000,
000000000000,
000000000000,
000000000000,
000000000000,
000000000000,
000000000000,
000000000000,
000000000000,
000000000000,
000000000000,
000000000000,
000000000000,
000000000000,
000000000000,
000000000000,
000000000000,
000000000000,
000000000000,
000000000000,
000000000000,
010100010000,
000000000000,
000000000000,
000000000000,
000000000000,
000001100000,
111111111111,
111111111111,
000000000000,
111111111111,
000000000000,
111111111111,
000000000000,
000000000000,
000000000000,
000000000000,
000000000000,
000000000000,
000000000000,
000000000000,
000000000000,
000000000000,
000000000000,
000000000000,
000000000000,
000000000000,
000000000000,
000000000000,
000000000000,
000000000000,
000000000000,
000000000000,
000000000000,
111101000010,
111110010000,
111110010000,
000000000000,
111111111111,
111111111111,
111111111111,
000000000000,
111111111111,
000000000000,
111111111111,
000000000000,
000000000000,
000000000000,
000000000000,
000000000000,
000000000000,
000000000000,
000000000000,
000000000000,
000000000000,
000000000000,
000000000000,
000000000000,
000000000000,
000000000000,
000000000000,
000000000000,
000000000000,
000000000000,
000000000000,
000000000000,
100100110010,
111101000010,
000000000000,
000000000000,
111111111111,
111111111111,
111111111111,
111111111111,
111111111111,
111111111111,
111111111111,
000000000000,
000000000000,
000000000000,
000001010000,
000000000000,
000000000000,
000000000000,
000000000000,
000000000000,
000000000000,
000000000000,
000000000000,
000000000000,
000000000000,
000000000000,
000000000000,
000000000000,
000000000000,
000000000000,
001100100000,
000000000000,
000000000000,
000000000000,
000011110000,
000011110000,
000001100000,
111111111111,
111111111111,
111111111111,
000001100000,
111111111111,
000000000000,
000011110000,
000011110000,
000011110000,
000000000000,
000001010000,
000000000000,
000000000000,
000000000000,
000000000000,
000000000000,
000000000000,
000000000000,
000000000000,
000000000000,
000000000000,
000000000000,
000000000000,
000000000000,
001100010000,
000000000000,
111110010000,
000000000000,
000010100000,
000011110000,
111111111111,
000011110000,
000001100000,
000001100000,
000001100000,
000011110000,
000001100000,
000011110000,
000011110000,
111111111111,
111111111111,
000011110000,
000000000000,
000000000000,
000000000000,
000000000000,
000000000000,
000000000000,
000000000000,
000000000000,
000000000000,
000000000000,
000000000000,
000000000000,
000000000000,
000000000000,
000000000000,
100100110010,
111101000010,
000000000000,
000010100000,
000011110000,
000011110000,
111111111111,
111111111111,
111111111111,
000011110000,
000010100000,
000011110000,
000011110000,
000011110000,
000000000000,
111111111111,
000000000000,
000000000000,
000000110000,
000000000000,
000000000000,
000000000000,
000000000000,
000000000000,
000000000000,
000000000000,
000000000000,
000000000000,
000000000000,
000000000000,
000000000000,
000000000000,
100100110010,
100100110010,
000000000000,
000001100000,
000010100000,
111111111111,
111111111111,
111111111111,
111111111111,
000010100000,
000010100000,
000011110000,
000011110000,
000011110000,
000011110000,
000011110000,
000011110000,
000011110000,
000000000000,
000000000000,
000000000000,
000000000000,
000000000000,
000000000000,
000000000000,
000000000000,
000000000000,
000000000000,
000000000000,
000000000000,
000000000000,
001100010000,
000000000000,
000000000000,
000000000000,
000001100000,
000010100000,
111111111111,
111111111111,
111111111111,
111111111111,
000001100000,
000010100000,
000010100000,
000011110000,
000011110000,
000011110000,
000011110000,
000011110000,
000011110000,
000000000000,
000000000000,
000000000000,
000000000000,
000000000000,
000000000000,
000000000000,
000000000000,
000000000000,
000000000000,
000000000000,
000000000000,
000000000000,
000000000000,
000000000000,
000000000000,
000000000000,
000001100000,
000001100000,
111111001010,
111111111111,
111111111111,
111111001010,
000000000000,
000001100000,
000010100000,
000010100000,
000010100000,
000011110000,
000011110000,
000011110000,
000010100000,
000000000000,
000000000000,
000000000000,
000000000000,
000000000000,
000000000000,
000000000000,
000000000000,
000000000000,
000000000000,
000000000000,
000000000000,
000000000000,
000000000000,
000000000000,
000000000000,
111101000010,
000000000000,
000001100000,
000001100000,
111111001010,
111111001010,
000000000000,
000000000000,
000001100000,
000001100000,
000010100000,
000010100000,
000010100000,
000010100000,
000010100000,
000010100000,
000000000000,
000000000000,
000000000000,
000000000000,
000000000000,
000000000000,
000000000000,
000000000000,
000000000000,
000000000000,
000000000000,
000000000000,
000000000000,
000000000000,
000000000000,
001100000000,
000000000000,
000000000000,
000000000000,
000001100000,
000001100000,
111111001010,
111111111111,
000000000000,
000001100000,
000001100000,
000001100000,
000001100000,
000010100000,
000010100000,
000010100000,
000000000000,
000000110000,
000000000000,
000000000000,
000000000000,
000000000000,
000000000000,
000000000000,
000000000000,
000000000000,
000000000000,
000000000000,
000000000000,
000000000000,
000000000000,
000000000000,
000000000000,
000000000000,
111101000010,
000000000000,
000001100000,
000010100000,
111110011000,
111111001010,
111111111111,
000000000000,
000001100000,
000001100000,
000001100000,
000001100000,
000000000000,
000000000000,
000000110000,
000000000000,
000000000000,
000000000000,
000000000000,
000000000000,
000000000000,
000000000000,
000000000000,
000000000000,
000000000000,
000000000000,
010100010000,
000000000000,
000000000000,
000000000000,
000000000000,
000000000000,
000000000000,
000001100000,
000010100000,
000010100000,
111110011000,
111110011000,
000000000000,
000000000000,
000000000000,
000000000000,
000000000000,
000000000000,
000000010000,
000000000000,
000000000000,
000000000000,
000000000000,
000000000000,
000000000000,
000000000000,
000000000000,
000000000000,
000000000000,
000000000000,
000000000000,
001100010000,
000000000000,
111101000010,
111111111111,
111101000010,
000000000000,
000011110000,
000011110000,
000010100000,
111111111111,
111111111111,
111111111111,
000000000000,
001100010001,
000000000000,
000000000000,
000000000000,
000000000000,
000000000000,
000000000000,
000000000000,
000000000000,
000000000000,
000000000000,
000000000000,
000000000000,
000000000000,
000000000000,
000000000000,
000000000000,
000000000000,
000000000000,
000000000000,
111101000010,
111101000010,
111101000010,
000000000000,
000000000000,
000011110000,
000011110000,
000000000000,
111111111111,
111111111111,
111111111111,
000000000000,
000000000000,
000000000000,
000000000000,
000000000000,
000000000000,
000000000000,
000000000000,
000000000000,
000000000000,
000000000000,
000000000000,
000000000000,
000000000000,
000000000000,
000000000000,
000000000000,
000000000000,
000000000000,
000000000000,
111111111111,
000000000000,
000000000000,
000000000000,
111111111111,
000000000000,
000011110000,
000011110000,
000000000000,
000000000000,
111111111111,
111111111111,
000000000000,
000000000000,
000000000000,
000000000000,
000000000000,
000000000000,
000000000000,
000000000000,
000000000000,
000000000000,
000000000000,
000000000000,
000000000000,
000000000000,
000000000000,
000000000000,
000000000000,
000000000000,
000011110000,
000010100000,
000000000000,
111111111111,
111111111111,
111111111111,
000000000000,
000000000000,
000011110000,
000011110000,
000011110000,
000000000000,
000000000000,
111111111111,
000000000000,
000000000000,
000000000000,
000000000000,
000000000000,
000000000000,
000000000000,
000000000000,
000000000000,
000000000000,
000000000000,
000000000000,
000000000000,
000000000000,
000000000000,
000000000000,
000000000000,
000000000000,
111111111111,
000001100000,
000010100000,
000000000000,
000000000000,
000000000000,
000000000000,
000010100000,
000011110000,
000011110000,
000000000000,
000011110000,
000000000000,
000000000000,
001100110011,
000000000000,
000000000000,
000000000000,
000000000000,
000000000000,
000000000000,
000000000000,
000000000000,
000000000000,
000000000000,
000000000000,
000000000000,
000000000000,
000000000000,
000000000000,
000000000000,
000000000000,
111111111111,
000000000000,
000000000000,
000000000000,
000000000000,
000011110000,
000000000000,
000010100000,
000011110000,
111111111111,
111111111111,
000011110000,
000000000000,
000000000000,
000000000000,
000000000000,
000000000000,
000000000000,
000000000000,
000000000000,
000000000000,
000000000000,
000000000000,
000000000000,
000000000000,
000000000000,
000000000000,
000000000000,
000000000000,
000000000000,
000000000000,
001100110011,
000000000000,
111101000010,
111110010000,
111110010000,
000000000000,
000010100000,
000000000000,
000001100000,
000010100000,
000011110000,
000011110000,
000011110000,
000000000000,
000000000000,
000000000000,
000000000000,
000000000000,
000000000000,
000000000000,
000000000000,
000000000000,
000000000000,
000000000000,
000000000000,
000000000000,
000000000000,
000000000000,
000000000000,
000000000000,
000000000000,
000000000000,
000000000000,
000000000000,
111101000010,
111101000010,
111101000010,
000000000000,
000000000000,
111111101101,
000000000000,
000001100000,
000000000000,
000000000000,
000000000000,
000000000000,
000000000000,
000000000000,
000000000000,
000000000000,
000000000000,
000000000000,
000000000000,
000000000000,
000000000000,
000000000000,
000000000000,
000000000000,
000000000000,
000000000000,
000000000000,
000000000000,
000000000000,
000000000000,
000000000000,
000000000000,
111101000010,
100100110010,
100100110010,
100100110010,
000000000000,
111111101101,
111111101101,
000000000000,
000000000000,
111101000010,
111110010000,
111110010000,
000000000000,
000000000000,
000000000000,
000000000000,
000000000000,
000000000000,
000000000000,
000000000000,
000000000000,
000000000000,
000000000000,
000000000000,
000000000000,
000000000000,
000000000000,
000000000000,
000000000000,
000000000000,
000000000000,
000000000000,
111101000010,
100100110010,
000000000000,
000000000000,
111111001010,
111111001010,
000000000000,
000000000000,
100100110010,
100100110010,
111101000010,
000000000000,
111111111111,
000000000000,
000000000000,
000000000000,
000000000000,
000000000000,
000000000000,
000000000000,
000000000000,
000000000000,
000000000000,
000000000000,
000000000000,
000000000000,
000000000000,
000000000000,
000000000000,
000000000000,
000000000000,
000000000000,
100100110010,
100100110010,
100100110010,
000000000000,
000000000000,
000000000000,
000000000000,
100100110010,
100100110010,
000000000000,
000000000000,
111111111111,
000000000000,
010101010101,
000000000000,
000000000000,
000000000000,
000000000000,
000000000000,
000000000000,
000000000000,
000000000000,
000000000000,
000000000000,
000000000000,
000000000000,
000000000000,
000000000000,
000000000000,
000000000000,
000000000000,
000000000000,
100100110010,
100100110010,
100100110010,
000000000000,
000000000000,
000000000000,
000000000000,
100100110010,
000000000000,
111111111111,
111111111111,
000000000000,
010101010101,
000000000000,
000000000000,
000000000000,
000000000000,
000000000000,
000000000000,
000000000000,
000000000000,
000000000000,
000000000000,
000000000000,
000000000000,
000000000000,
000000000000,
000000000000,
000000000000,
000000000000,
000000000000,
001100010000,
000000000000,
000000000000,
000000000000,
001100010000,
000000000000,
000000000000,
000000000000,
000000000000,
000000000000,
000000000000,
000000000000,
010101010101,
000000000000,
000000000000,
000000000000,
000000000000,
000000000000,
000000000000,
000000000000,
000000000000,
000000000000,
000000000000,
000000000000,
000000000000,
000000000000,
000000000000,
000000000000,
000000000000,
000000000000,
000000000000,
000000000000,
000000000000,
000000000000,
000000000000,
000000000000,
000000000000,
000000000000,
000000000000,
000000000000,
000000000000,
000000000000,
000000000000,
000000000000,
000000000000,
000000000000,
000000000000,
000000000000,
000000000000,
000000000000,
000000000000,
000000000000,
000000000000,
000000000000,
000000000000,
000000000000,
000000000000,
000000000000,
000000000000,
000000000000,
000000000000,
000000000000,
000000000000,
000000000000,
000000000000,
000000000000,
000000000000,
000000000000,
000000000000,
000000000000,
000000000000,
000000000000,
000000000000,
000000000000,
000000000000,
000000000000,
000000000000,
000000000000,
000000000000,
000000000000,
000000000000,
000000000000,
000000000000,
000000000000,
000000000000,
000000000000,
000000000000,
000000000000,
000000000000,
000000000000,
000000000000,
000000000000,
000000000000,
000000000000,
000000000000,
000000000000,
000000000000,
000000000000,
000000000000,
000000000000,
000000000000,
000000000000,
000000000000,
000000000000,
000000000000,
000000000000,
000000000000,
000000000000,
000000000000,
000000000000,
000000000000,
000000000000,
000000000000,
000000000000,
000000000000,
000000000000,
000000000000,
000000000000,
000000000000,
000000000000,
000000000000,
000000000000,
000000000000,
000000000000,
000000000000,
000000000000,
000000000000,
000000000000,
000000000000,
000000000000,
000000000000,
000000000000,
000000000000,
000000000000,
000000000000,
000000000000,
000000000000,
000000000000,
000000000000,
000000000000,
000000000000,
000000000000,
000000000000,
000000000000,
000000000000,
000000000000,
000000000000,
000000000000,
000000000000,
000000000000,
000000000000,
000000000000,
000000000000,
000000000000,
000000000000,
000000000000,
000000000000,
000000000000,
000000000000,
000000000000,
000000000000,
000000000000,
000000000000,
000000000000,
000000000000,
000000000000,
000000000000,
000000000000,
000000000000,
000000000000,
000000000000,
000000000000,
000000000000,
000000000000,
000000000000,
000000000000,
000000000000,
000000000000,
000000000000,
000000000000,
000000000000,
000000000000,
000000000000,
000000000000,
000000000000,
000000000000,
000000000000,
000000000000,
000000000000,
000000000000,
000000000000,
000000000000,
000000000000,
000000000000,
000000000000,
000000000000,
000000000000,
000000000000,
000000000000,
000000000000,
000000000000,
000000000000,
000000000000,
000000000000,
000000000000,
000000000000,
000000000000,
000000000000,
000000000000,
000000000000,
000000000000,
000000000000,
000000000000,
000000000000,
000000000000,
000000000000,
000000000000,
000000000000,
000000000000,
000000000000,
000000000000,
000000000000,
000000000000,
000000000000,
000000000000,
000000000000,
000000000000,
000000000000,
000000000000,
000000000000,
000000000000,
000000000000,
000000000000,
000000000000,
000000000000,
000000000000,
000000000000,
000000000000,
000000000000,
000000000000,
000000000000,
000000000000,
000000000000,
000000000000,
000000000000,
000000000000,
000000000000,
000000000000,
000000000000,
000000000000,
000000000000,
000000000000;
