;	VGA Memory Map
; .COE file with hex coefficients
; Height: 32, Width: 32
memory_initialization_radix = 2;
memory_initialization_vector =
000000000000,
000000000000,
000000000000,
000000000000,
000000000000,
000000000000,
000000000000,
000000000000,
001100110011,
001100110011,
000000000000,
000000000000,
000000000000,
000000000000,
000000000000,
000000000000,
000000000000,
000000000000,
000000000000,
000000000000,
010001000100,
010001000100,
000000000000,
000000000000,
000000000000,
000000000000,
000000000000,
000000000000,
000000000000,
000000000000,
000000000000,
000000000000,
000000000000,
000000000000,
000000000000,
000000000000,
000000000000,
000000000000,
000000000000,
000000000000,
001100110011,
001100110011,
000000000000,
000000000000,
000000000000,
000000000000,
000000000000,
000000000000,
000000000000,
000000000000,
000000000000,
000000000000,
010001000100,
010001000100,
000000000000,
000000000000,
000000000000,
000000000000,
000000000000,
000000000000,
000000000000,
000000000000,
000000000000,
000000000000,
000000000000,
000000000000,
000000000000,
000000000000,
010001000100,
010001000100,
000000000000,
000000000000,
000000000000,
000000000000,
110011001100,
110011001100,
110011001100,
110011001100,
110011001100,
110011001100,
000000000000,
000000000000,
110011001100,
110011001100,
000000000000,
000000000000,
010001000100,
010001000100,
000000000000,
000000000000,
000000000000,
000000000000,
000000000000,
000000000000,
000000000000,
000000000000,
000000000000,
000000000000,
000000000000,
000000000000,
010001000100,
010001000100,
000000000000,
000000000000,
000000000000,
000000000000,
110011001100,
110011001100,
110011001100,
110011001100,
110011001100,
110011001100,
000000000000,
000000000000,
110011001100,
110011001100,
000000000000,
000000000000,
010001000100,
010001000100,
000000000000,
000000000000,
000000000000,
000000000000,
000000000000,
000000000000,
000000000000,
000000000000,
000000000000,
000000000000,
010001000100,
010001000100,
000000000000,
000000000000,
110011001100,
110011001100,
110011001100,
110011001100,
110011001100,
110011001100,
110011001100,
110011001100,
000000000000,
000000000000,
000000000000,
000000000000,
000000000000,
000000000000,
110011001100,
110011001100,
000000000000,
000000000000,
001100110011,
001100110011,
000000000000,
000000000000,
000000000000,
000000000000,
000000000000,
000000000000,
000000000000,
000000000000,
010001000100,
010001000100,
000000000000,
000000000000,
110011001100,
110011001100,
110011001100,
110011001100,
110011001100,
110011001100,
110011001100,
110011001100,
000000000000,
000000000000,
000000000000,
000000000000,
000000000000,
000000000000,
110011001100,
110011001100,
000000000000,
000000000000,
001100110011,
001100110011,
000000000000,
000000000000,
000000000000,
000000000000,
000000000000,
000000000000,
000000000000,
000000000000,
000000000000,
000000000000,
110011001100,
110011001100,
110011001100,
110011001100,
110011001100,
110011001100,
110011001100,
110011001100,
111111111111,
111111111111,
000000000000,
000000000000,
000000000000,
000000000000,
000000000000,
000000000000,
111111111111,
111111111111,
110011001100,
110011001100,
000000000000,
000000000000,
000000000000,
000000000000,
001100110011,
001100110011,
000000000000,
000000000000,
000000000000,
000000000000,
000000000000,
000000000000,
110011001100,
110011001100,
110011001100,
110011001100,
110011001100,
110011001100,
110011001100,
110011001100,
111111111111,
111111111111,
000000000000,
000000000000,
000000000000,
000000000000,
000000000000,
000000000000,
111111111111,
111111111111,
110011001100,
110011001100,
000000000000,
000000000000,
000000000000,
000000000000,
001100110011,
001100110011,
000000000000,
000000000000,
001100110011,
001100110011,
000000000000,
000000000000,
110011001100,
110011001100,
000000000000,
000000000000,
000000000000,
000000000000,
000000000000,
000000000000,
111111111111,
111111111111,
111111111111,
111111111111,
000000000000,
000000000000,
000000000000,
000000000000,
111111111111,
111111111111,
111111111111,
111111111111,
110011001100,
110011001100,
110011001100,
110011001100,
000000000000,
000000000000,
000000000000,
000000000000,
000000000000,
000000000000,
110011001100,
110011001100,
110011001100,
110011001100,
000000000000,
000000000000,
000000000000,
000000000000,
111111111111,
111111111111,
111111111111,
111111111111,
000000000000,
000000000000,
000000000000,
000000000000,
000000000000,
000000000000,
111111111111,
111111111111,
111111111111,
111111111111,
111111111111,
111111111111,
110011001100,
110011001100,
110011001100,
110011001100,
000000000000,
000000000000,
000000000000,
000000000000,
110011001100,
110011001100,
110011001100,
110011001100,
000000000000,
000000000000,
000000000000,
000000000000,
111111111111,
111111111111,
111111111111,
111111111111,
000000000000,
000000000000,
000000000000,
000000000000,
000000000000,
000000000000,
111111111111,
111111111111,
111111111111,
111111111111,
111111111111,
111111111111,
110011001100,
110011001100,
110011001100,
110011001100,
000000000000,
000000000000,
000000000000,
000000000000,
110011001100,
110011001100,
110011001100,
110011001100,
000000000000,
000000000000,
000000000000,
000000000000,
000000000000,
000000000000,
111111111111,
111111111111,
111111111111,
111111111111,
111111111111,
111111111111,
111111111111,
111111111111,
111111111111,
111111111111,
111111111111,
111111111111,
111111111111,
111111111111,
111111111111,
111111111111,
000000000000,
000000000000,
110011001100,
110011001100,
000000000000,
000000000000,
110011001100,
110011001100,
110011001100,
110011001100,
000000000000,
000000000000,
000000000000,
000000000000,
000000000000,
000000000000,
111111111111,
111111111111,
111111111111,
111111111111,
111111111111,
111111111111,
111111111111,
111111111111,
111111111111,
111111111111,
111111111111,
111111111111,
111111111111,
111111111111,
111111111111,
111111111111,
000000000000,
000000000000,
110011001100,
110011001100,
000000000000,
000000000000,
110011001100,
110011001100,
000000000000,
000000000000,
111111111111,
111111111111,
111111111111,
111111111111,
111111111111,
111111111111,
111111111111,
111111111111,
111111111111,
111111111111,
111111111111,
111111111111,
111111111111,
111111111111,
111111111111,
111111111111,
111111111111,
111111111111,
000000000000,
000000000000,
110011001100,
110011001100,
110011001100,
110011001100,
000000000000,
000000000000,
000000000000,
000000000000,
110011001100,
110011001100,
000000000000,
000000000000,
111111111111,
111111111111,
111111111111,
111111111111,
111111111111,
111111111111,
111111111111,
111111111111,
111111111111,
111111111111,
111111111111,
111111111111,
111111111111,
111111111111,
111111111111,
111111111111,
111111111111,
111111111111,
000000000000,
000000000000,
110011001100,
110011001100,
110011001100,
110011001100,
000000000000,
000000000000,
000000000000,
000000000000,
110011001100,
110011001100,
000000000000,
000000000000,
111111111111,
111111111111,
111111111111,
111111111111,
111111111111,
111111111111,
111111111111,
111111111111,
111111111111,
111111111111,
111111111111,
111111111111,
111111111111,
111111111111,
000000000000,
000000000000,
111111111111,
111111111111,
111111111111,
111111111111,
000000000000,
000000000000,
110011001100,
110011001100,
000000000000,
000000000000,
000000000000,
000000000000,
110011001100,
110011001100,
000000000000,
000000000000,
000000000000,
000000000000,
111111111111,
111111111111,
111111111111,
111111111111,
111111111111,
111111111111,
111111111111,
111111111111,
111111111111,
111111111111,
000000000000,
000000000000,
000000000000,
000000000000,
111111111111,
111111111111,
111111111111,
111111111111,
111111111111,
111111111111,
000000000000,
000000000000,
000000000000,
000000000000,
000000000000,
000000000000,
110011001100,
110011001100,
000000000000,
000000000000,
000000000000,
000000000000,
111111111111,
111111111111,
111111111111,
111111111111,
111111111111,
111111111111,
111111111111,
111111111111,
111111111111,
111111111111,
000000000000,
000000000000,
000000000000,
000000000000,
111111111111,
111111111111,
111111111111,
111111111111,
111111111111,
111111111111,
000000000000,
000000000000,
000000000000,
000000000000,
000000000000,
000000000000,
111111111111,
111111111111,
111111111111,
111111111111,
000000000000,
000000000000,
000000000000,
000000000000,
000000000000,
000000000000,
000000000000,
000000000000,
000000000000,
000000000000,
000000000000,
000000000000,
000000000000,
000000000000,
000000000000,
000000000000,
000000000000,
000000000000,
111111111111,
111111111111,
111111111111,
111111111111,
000000000000,
000000000000,
110011001100,
110011001100,
000000000000,
000000000000,
111111111111,
111111111111,
111111111111,
111111111111,
000000000000,
000000000000,
000000000000,
000000000000,
000000000000,
000000000000,
000000000000,
000000000000,
000000000000,
000000000000,
000000000000,
000000000000,
000000000000,
000000000000,
000000000000,
000000000000,
000000000000,
000000000000,
111111111111,
111111111111,
111111111111,
111111111111,
000000000000,
000000000000,
110011001100,
110011001100,
000000000000,
000000000000,
111111111111,
111111111111,
111111111111,
111111111111,
000000000000,
000000000000,
000000000000,
000000000000,
000000000000,
000000000000,
000000000000,
000000000000,
000000000000,
000000000000,
000000000000,
000000000000,
000000000000,
000000000000,
000000000000,
000000000000,
111111111111,
111111111111,
000000000000,
000000000000,
000000000000,
000000000000,
110011001100,
110011001100,
000000000000,
000000000000,
000000000000,
000000000000,
111111111111,
111111111111,
111111111111,
111111111111,
000000000000,
000000000000,
000000000000,
000000000000,
000000000000,
000000000000,
000000000000,
000000000000,
000000000000,
000000000000,
000000000000,
000000000000,
000000000000,
000000000000,
000000000000,
000000000000,
111111111111,
111111111111,
000000000000,
000000000000,
000000000000,
000000000000,
110011001100,
110011001100,
000000000000,
000000000000,
000000000000,
000000000000,
011001100110,
011001100110,
111111111111,
111111111111,
111111111111,
111111111111,
000000000000,
000000000000,
101000110011,
101000110011,
101000110011,
101000110011,
101000110011,
101000110011,
000000000000,
000000000000,
111111111111,
111111111111,
111111111111,
111111111111,
111111111111,
111111111111,
111111111111,
111111111111,
110011001100,
110011001100,
110011001100,
110011001100,
000000000000,
000000000000,
000000000000,
000000000000,
011001100110,
011001100110,
111111111111,
111111111111,
111111111111,
111111111111,
000000000000,
000000000000,
101000110011,
101000110011,
101000110011,
101000110011,
101000110011,
101000110011,
000000000000,
000000000000,
111111111111,
111111111111,
111111111111,
111111111111,
111111111111,
111111111111,
111111111111,
111111111111,
110011001100,
110011001100,
110011001100,
110011001100,
000000000000,
000000000000,
000100010001,
000100010001,
000000000000,
000000000000,
110011001100,
110011001100,
110011001100,
110011001100,
101000110011,
101000110011,
101000110011,
101000110011,
101000110011,
101000110011,
101000110011,
101000110011,
111111111111,
111111111111,
111111111111,
111111111111,
111111111111,
111111111111,
111111111111,
111111111111,
110011001100,
110011001100,
110011001100,
110011001100,
000000000000,
000000000000,
010001000100,
010001000100,
000000000000,
000000000000,
000000000000,
000000000000,
110011001100,
110011001100,
110011001100,
110011001100,
101000110011,
101000110011,
101000110011,
101000110011,
101000110011,
101000110011,
110011001100,
110011001100,
110011001100,
110011001100,
111111111111,
111111111111,
111111111111,
111111111111,
110011001100,
110011001100,
110011001100,
110011001100,
000000000000,
000000000000,
010001000100,
010001000100,
000000000000,
000000000000,
000000000000,
000000000000,
000000000000,
000000000000,
110011001100,
110011001100,
110011001100,
110011001100,
101000110011,
101000110011,
101000110011,
101000110011,
101000110011,
101000110011,
110011001100,
110011001100,
110011001100,
110011001100,
111111111111,
111111111111,
111111111111,
111111111111,
110011001100,
110011001100,
110011001100,
110011001100,
000000000000,
000000000000,
010001000100,
010001000100,
000000000000,
000000000000,
000000000000,
000000000000,
010001000100,
010001000100,
000000000000,
000000000000,
000000000000,
000000000000,
101000110011,
101000110011,
101000110011,
101000110011,
101000110011,
101000110011,
110011001100,
110011001100,
110011001100,
110011001100,
110011001100,
110011001100,
110011001100,
110011001100,
000000000000,
000000000000,
000000000000,
000000000000,
010001000100,
010001000100,
000000000000,
000000000000,
000000000000,
000000000000,
000000000000,
000000000000,
010001000100,
010001000100,
000000000000,
000000000000,
000000000000,
000000000000,
101000110011,
101000110011,
101000110011,
101000110011,
101000110011,
101000110011,
110011001100,
110011001100,
110011001100,
110011001100,
110011001100,
110011001100,
110011001100,
110011001100,
000000000000,
000000000000,
000000000000,
000000000000,
010001000100,
010001000100,
000000000000,
000000000000,
000000000000,
000000000000,
000000000000,
000000000000,
000000000000,
000000000000,
000000000000,
000000000000,
001000000000,
001000000000,
000000000000,
000000000000,
101000110011,
101000110011,
101000110011,
101000110011,
101000110011,
101000110011,
000000000000,
000000000000,
000000000000,
000000000000,
000000000000,
000000000000,
001100110011,
001100110011,
000000000000,
000000000000,
000000000000,
000000000000,
000000000000,
000000000000,
000000000000,
000000000000,
000000000000,
000000000000,
000000000000,
000000000000,
000000000000,
000000000000,
001000000000,
001000000000,
000000000000,
000000000000,
101000110011,
101000110011,
101000110011,
101000110011,
101000110011,
101000110011,
000000000000,
000000000000,
000000000000,
000000000000,
000000000000,
000000000000,
001100110011,
001100110011,
000000000000,
000000000000,
000000000000,
000000000000,
000000000000,
000000000000,
000000000000,
000000000000,
000000000000,
000000000000,
000000000000,
000000000000,
000000000000,
000000000000,
000000000000,
000000000000,
001100010001,
001100010001,
000000000000,
000000000000,
000000000000,
000000000000,
000000000000,
000000000000,
000000000000,
000000000000,
000000000000,
000000000000,
000000000000,
000000000000,
000000000000,
000000000000,
000000000000,
000000000000,
000000000000,
000000000000,
000000000000,
000000000000,
000000000000,
000000000000;
