;	VGA Memory Map
; .COE file with hex coefficients
; Height: 32, Width: 32
memory_initialization_radix = 2;
memory_initialization_vector =
010101010101,
001100110011,
011101110111,
101010111011,
101010101011,
101010101011,
101010101011,
101010101011,
101010111011,
100010001001,
010101010111,
011001101000,
010101010111,
011001101000,
011001101000,
010101010111,
011101111000,
010101010111,
011101111000,
010101010111,
011001101000,
011001101000,
010101010111,
011001101000,
010101010111,
011101111000,
010101010111,
011001101000,
011001101000,
011001101000,
010101010101,
001100110011,
001100110011,
000100010001,
011101110111,
111011111111,
110111011110,
110111101110,
110111101110,
110111011101,
111011111111,
100110011011,
010001001000,
010101011000,
010101011000,
010101011000,
010101011000,
010101011000,
011001101001,
010001001000,
011001101001,
010101011000,
010101011000,
010101011000,
010101011000,
011001101001,
010001001000,
011001101001,
010101011000,
011001101001,
010101011000,
010101011000,
001100110100,
000000000000,
011101110111,
011001100110,
100110011010,
110111011101,
110011001101,
101110111100,
101110111100,
101110111100,
101110111100,
100110011010,
011001101001,
011101111001,
011001101001,
011101111001,
011101111001,
011001101001,
011101111001,
011001101001,
011101111001,
011001101001,
011101111001,
011101111001,
011001101001,
011101111001,
011001101001,
011101111001,
011001101001,
011101111001,
011001101001,
011001101001,
011001100110,
010001000101,
101110111011,
111011101111,
110011011101,
111011101110,
110011001101,
011101111010,
011101111010,
011101111010,
011001101010,
011101111010,
011001101010,
011101111010,
011101111010,
011101111010,
011101111010,
011101111010,
011101111010,
011001101010,
011101111010,
011101111010,
011101111010,
011101111010,
011101111010,
011101111010,
011001101010,
011101111010,
010101011000,
011001101001,
010101011000,
010101011000,
011001101001,
010101011000,
101110111011,
110111101110,
110011001100,
110011001101,
101110111100,
011101111010,
011101111010,
100010001010,
011101111010,
100010001010,
011101111010,
011101111010,
011101111010,
011101111010,
011101111010,
011101111010,
100010001010,
011101111010,
100010001010,
011101111010,
011101111010,
011101111010,
011101111010,
100010001010,
011101111010,
011101111010,
011001101001,
011001101001,
011001101001,
011001101001,
011001101001,
010101011000,
101110111011,
111011101110,
101010111100,
011101111010,
100010001010,
011101111010,
011101111010,
011101111010,
011101111010,
100010001010,
011101111010,
011101111010,
011101111010,
011101111010,
011101111010,
011101111010,
100010001010,
011101111010,
100010001010,
011101111010,
011101111010,
011101111010,
011101111010,
100010001010,
011101111010,
100010001010,
011101111010,
011101111010,
011001101001,
011001101001,
011001101001,
010101011000,
101110111011,
111011101111,
101010101100,
011001101010,
011101111010,
011101111010,
011101111010,
011101111010,
011001101010,
011101111010,
011001101010,
011101111010,
011101111010,
011101111010,
011101111010,
011101111010,
100010001010,
011001101010,
011101111010,
011101111010,
011101111010,
011101111010,
011101111010,
011101111010,
011001101010,
011101111010,
011101111010,
011101111010,
010101011000,
010101011000,
011001101001,
010101011000,
101110111011,
110111011110,
101010101011,
011101111010,
100010001010,
011101111010,
011101111010,
100010001010,
011101111010,
100010001010,
011101111010,
100010001010,
011101111010,
011101111010,
100010001010,
011101111010,
100010001010,
011101111010,
100010001010,
011101111010,
100010001010,
100010001010,
011101111010,
100010001010,
011101111010,
100010001010,
011101111010,
100010001010,
011001101001,
011001101001,
011101111001,
010101011000,
101110111011,
111011111111,
101010111100,
011001101010,
011101111010,
011101111010,
011101111010,
011101111010,
011001101010,
011101111010,
011001101011,
011101111010,
011001101010,
011101111010,
011101111010,
011001101010,
011101111010,
011001101011,
011101111010,
011001101010,
011101111010,
011101111010,
011101111011,
011101111010,
011001101010,
011101111010,
011001101010,
011101111010,
010101011000,
010101011000,
011001101000,
010001001000,
100110011010,
101010101100,
100110011011,
011101111010,
100010001010,
100010001010,
100010001010,
100010001010,
011101111010,
011101111001,
010101010111,
011101111001,
011101111010,
100010001010,
100010001010,
011101111010,
100010001010,
011101111010,
100010001010,
011101111010,
100010001010,
011001101000,
011001101000,
100010001010,
011101111010,
100010001010,
011101111010,
100010001010,
011001101001,
011001101001,
011101111001,
011001101000,
010101011000,
010001001000,
011101111001,
011101111010,
011101111010,
011101111010,
011101111010,
011101111010,
011101111011,
010101010111,
000100010001,
010001000101,
011101111011,
011101111010,
011101111010,
011101111010,
011101111010,
011001101010,
011101111010,
011101111010,
011101111010,
001100110011,
001000100010,
011001101001,
011001101011,
011101111010,
011101111010,
011101111010,
010101011000,
010101011000,
011001101001,
010001001000,
011101111000,
011101111001,
100010001010,
011101111010,
100010001010,
011101111010,
011101111010,
100010001010,
011101111010,
011001100111,
001000100010,
010101010101,
011101111010,
011101111010,
100010001010,
011101111010,
100010001010,
011101111010,
100010001010,
011101111010,
011101111010,
010001000100,
001100110011,
011101111001,
011101111010,
100010001010,
011101111010,
011101111010,
011001101001,
011001101001,
011001101001,
010101011000,
101110111011,
110111101110,
101010101100,
011101111010,
011101111010,
011101111010,
011101111010,
011101111010,
011101111010,
011001100111,
000100010001,
010001000101,
011101111010,
011101111010,
011101111010,
011101111010,
100010001010,
011101111010,
100010001010,
011101111010,
011101111010,
001100110011,
001000100010,
011101111001,
011101111010,
100010001010,
011101111010,
011101111010,
011001101001,
011001101000,
011001101001,
010101011000,
101110111011,
111011101110,
101010101100,
011001101010,
011101111010,
011101111010,
011101111010,
011101111010,
011101111011,
011001100111,
000100010001,
010001000101,
011101111010,
011101111010,
011101111010,
011101111010,
100010001010,
011101111010,
100010001010,
011101111010,
011101111010,
001100110011,
001000100010,
011101111001,
011101111011,
100010001010,
011101111010,
011101111010,
011001101000,
010101011000,
011001101001,
010101011000,
011101111001,
011101111010,
100010001010,
011101111010,
100010001010,
011101111010,
011101111010,
100010001010,
011101111010,
011001100111,
001100110010,
010101010110,
011101111010,
011101111010,
100010001010,
011101111010,
100010001010,
011101111010,
100010001010,
011101111010,
011101111010,
010001000100,
001100110011,
011101111001,
011101111010,
100010001010,
011101111010,
100010001010,
011001101001,
011001101001,
011101111001,
010101011000,
010101010111,
010001001000,
011001101001,
011001101010,
011101111010,
011101111010,
011101111010,
011101111010,
011001101011,
010101010110,
000100010001,
010001000100,
011101111011,
011101111010,
011101111010,
011001101010,
011101111010,
011001101010,
011101111010,
011001101010,
011001101010,
001000100011,
000100010010,
011001101001,
011001101011,
011101111010,
011001101010,
011101111010,
010101011000,
010101011000,
011001101000,
010001001000,
011001101000,
011001101000,
011101111001,
011101111010,
100010001010,
011101111010,
011101111010,
100010001010,
011101111010,
011001100111,
001100110011,
010101010110,
011101111010,
011101111010,
100010001010,
011101111010,
100010001010,
011101111010,
100010001010,
011101111010,
011101111010,
010001000100,
001100110011,
011101111001,
011101111010,
100010001010,
011101111010,
100010001010,
011001101001,
011001101001,
011101111001,
010101011000,
010101010111,
010001001000,
011101111001,
011001101010,
011101111010,
011101111010,
011101111010,
011101111010,
011001101011,
010101010110,
000100010000,
010001000100,
011101111011,
011101111010,
011101111010,
011001101010,
011101111010,
011001101010,
011101111010,
011101111010,
011101111010,
001000100011,
000100010001,
011001101001,
011001101011,
011101111010,
011001101010,
011101111010,
010101011000,
010101011000,
011001101000,
010001001000,
011001101000,
010101011000,
011101111001,
011101111010,
100010001010,
011101111010,
011101111010,
100010001010,
011101111010,
011101111000,
001100110100,
011001100111,
011101111010,
011101111010,
100010001010,
011101111010,
100010001010,
011101111010,
100010001010,
011101111010,
011101111010,
010101010101,
010001000101,
011101111001,
011101111010,
100010001010,
011101111010,
100010001010,
011001101001,
011001101001,
011101111001,
010101011000,
011001101000,
010101011000,
011101111001,
011101111010,
011101111010,
011101111010,
011101111010,
011101111010,
011101111010,
100010001010,
011001101010,
011101111010,
011101111010,
011101111010,
011101111010,
011101111010,
100010001010,
011101111010,
100010001010,
011101111010,
011101111010,
011101111010,
011101111010,
011101111010,
011101111010,
100010001010,
011101111010,
011101111010,
011001101000,
010101011000,
011001101001,
010101011000,
011001101000,
010101011000,
011101111001,
011101111010,
011101111010,
011101111010,
011101111010,
011101111010,
011101111010,
100010001010,
011101111010,
011101111010,
011101111010,
011101111010,
011101111010,
011101111010,
100010001010,
011101111010,
100010001010,
011101111010,
011101111010,
011101111010,
011101111010,
011101111010,
011101111010,
100010001010,
011101111010,
011101111010,
011001101001,
011001101000,
011001101001,
010101011000,
011001101000,
010101011000,
011101111001,
011101111010,
100010001010,
011101111010,
011101111010,
100010001010,
011101111010,
100010001010,
011101111010,
100010001010,
011101111010,
011101111010,
100010001010,
011101111010,
100010001010,
011101111010,
100010001010,
011101111010,
100010001010,
011101111010,
011101111010,
100010001010,
011101111010,
100010001010,
011101111010,
011101111010,
011001101001,
011001101001,
011101111001,
010101011000,
010101011000,
010101011000,
011101111001,
011101111010,
011101111010,
011101111010,
011101111010,
011101111010,
011001101010,
011101111010,
011001101010,
011101111010,
011101111010,
011101111010,
011101111010,
011101111010,
011101111010,
011001101010,
011101111010,
011101111010,
011101111010,
011101111010,
011101111010,
011101111010,
011001101010,
011101111010,
011001101010,
011101111010,
010101011000,
010101011000,
011001101001,
010001001000,
011001101000,
011001101001,
011101111010,
011101111010,
100010001010,
100010001010,
100010001010,
100010001010,
011101111010,
100010001010,
011101111010,
100010001010,
011101111010,
100010001010,
100010001010,
011101111010,
100010001010,
011101111010,
100010001010,
011101111010,
100010001010,
100010001010,
011101111010,
100010001010,
011101111010,
100010001010,
011101111010,
100010001010,
011001101001,
011001101001,
011101111001,
011001101000,
010101010111,
010001001000,
011101111001,
011001101011,
011101111010,
011101111010,
011101111010,
011101111010,
011001101010,
011101111010,
011001101010,
011101111010,
011001101010,
011101111010,
011101111010,
011001101010,
011101111010,
011001101010,
011101111010,
011001101010,
011101111010,
011101111010,
011101111010,
011101111010,
011001101010,
011101111010,
011001101011,
011101111010,
010101011000,
010101011000,
011001101000,
010001001000,
011001101000,
011001101000,
011101111001,
011101111010,
011101111010,
011101111010,
011101111010,
100010001010,
011101111010,
100010001010,
011101111010,
100010001010,
011101111010,
011101111010,
100010001010,
011101111010,
100010001010,
011101111010,
100010001010,
011101111010,
100010001010,
011101111010,
011101111010,
100010001010,
011101111010,
100010001010,
011101111010,
011101111010,
011001101001,
011001101001,
011101111001,
010101011000,
011001101000,
010101011000,
011001101001,
010101011000,
011001101001,
011101111010,
011101111010,
011101111010,
011001101010,
100010001010,
011001101010,
011101111010,
011101111010,
011101111010,
011101111010,
011101111010,
100010001010,
011001101010,
011101111010,
011101111010,
011101111010,
011101111010,
011101111010,
011101111010,
011001101010,
011101111010,
010101011000,
011001101001,
010101011000,
010101011000,
011001101001,
010101011000,
011001101000,
010101011000,
011001101001,
010101011000,
011001101001,
011101111010,
011101111010,
011101111010,
011001101010,
100010001010,
011001101010,
011101111010,
011101111010,
011101111010,
011101111010,
011101111010,
100010001010,
011001101010,
011101111010,
011101111010,
011101111010,
011101111010,
011101111010,
011101111010,
011001101010,
011101111010,
010101011000,
011001101001,
011001101000,
011001101000,
011001101001,
010101011000,
011001101000,
010101011000,
011101111001,
010101011000,
011001101001,
011001101001,
011001101001,
011001101001,
010101011001,
011101111001,
010101011001,
011001101001,
011001101001,
011001101001,
011001101001,
010101011001,
011101111001,
010101011001,
011101111001,
010101011001,
011001101001,
011001101001,
011001101001,
011001101001,
010101011001,
011101111001,
010101011000,
011001101001,
011001101001,
011001101001,
011001101001,
010101011000,
010101011000,
010101011000,
011001101001,
010101011000,
011001101001,
010101011000,
010101011000,
011001101001,
010101011000,
011001101001,
010101011000,
011001101000,
010101011000,
010101011000,
011001101000,
010101011000,
011001101001,
010101011000,
011001101001,
010101011000,
011001101000,
010101011000,
010101011000,
011001101001,
010101011000,
011001101001,
010101011000,
011001101001,
010101011000,
010101011000,
011001101001,
010001001000,
010101010110,
010001000101,
011001101000,
011001101001,
011101111001,
011001101001,
011001101001,
011101111001,
011001101000,
011101111001,
011001101000,
011101111001,
011001101001,
011001101001,
011101111001,
011001101001,
011101111001,
011001101000,
011101111001,
011001101001,
011101111001,
011001101001,
011001101001,
011101111001,
011001101000,
011101111001,
011001101001,
011101111001,
011001101001,
011001101001,
011001100111,
010001000101,
001100110011,
000100010000,
010001000101,
010001001000,
010101011000,
010101011000,
010101011000,
011001101000,
010001001000,
011001101001,
010001001000,
010101011000,
010101011000,
010101011000,
010101011000,
010101011000,
011001101001,
010001001000,
011001101001,
010101011000,
010101011000,
010101011000,
010101011000,
011001101001,
010001001000,
011001101001,
010001001000,
010101011000,
010101011000,
010101011000,
001100110011,
000000000000;
