Copyright 1986-2020 Xilinx, Inc. All Rights Reserved.
-------------------------------------------------------------------------------------------------------------
| Tool Version : Vivado v.2020.2 (lin64) Build 3064766 Wed Nov 18 09:12:47 MST 2020
| Date         : Sun Dec  5 02:44:21 2021
| Host         : rsws13.kaust.edu.sa running 64-bit Ubuntu 18.04.6 LTS
| Command      : report_utilization -file game_top_utilization_placed.rpt -pb game_top_utilization_placed.pb
| Design       : game_top
| Device       : 7a100tcsg324-1
| Design State : Fully Placed
-------------------------------------------------------------------------------------------------------------

Utilization Design Information

Table of Contents
-----------------
1. Slice Logic
1.1 Summary of Registers by Type
2. Slice Logic Distribution
3. Memory
4. DSP
5. IO and GT Specific
6. Clocking
7. Specific Feature
8. Primitives
9. Black Boxes
10. Instantiated Netlists

1. Slice Logic
--------------

+-------------------------+------+-------+-----------+-------+
|        Site Type        | Used | Fixed | Available | Util% |
+-------------------------+------+-------+-----------+-------+
| Slice LUTs              | 1540 |     0 |     63400 |  2.43 |
|   LUT as Logic          | 1540 |     0 |     63400 |  2.43 |
|   LUT as Memory         |    0 |     0 |     19000 |  0.00 |
| Slice Registers         |  669 |     0 |    126800 |  0.53 |
|   Register as Flip Flop |  594 |     0 |    126800 |  0.47 |
|   Register as Latch     |   75 |     0 |    126800 |  0.06 |
| F7 Muxes                |   13 |     0 |     31700 |  0.04 |
| F8 Muxes                |    0 |     0 |     15850 |  0.00 |
+-------------------------+------+-------+-----------+-------+


1.1 Summary of Registers by Type
--------------------------------

+-------+--------------+-------------+--------------+
| Total | Clock Enable | Synchronous | Asynchronous |
+-------+--------------+-------------+--------------+
| 2     |            _ |           - |            - |
| 0     |            _ |           - |          Set |
| 0     |            _ |           - |        Reset |
| 0     |            _ |         Set |            - |
| 0     |            _ |       Reset |            - |
| 0     |          Yes |           - |            - |
| 0     |          Yes |           - |          Set |
| 89    |          Yes |           - |        Reset |
| 38    |          Yes |         Set |            - |
| 540   |          Yes |       Reset |            - |
+-------+--------------+-------------+--------------+


2. Slice Logic Distribution
---------------------------

+--------------------------------------------+------+-------+-----------+-------+
|                  Site Type                 | Used | Fixed | Available | Util% |
+--------------------------------------------+------+-------+-----------+-------+
| Slice                                      |  538 |     0 |     15850 |  3.39 |
|   SLICEL                                   |  423 |     0 |           |       |
|   SLICEM                                   |  115 |     0 |           |       |
| LUT as Logic                               | 1540 |     0 |     63400 |  2.43 |
|   using O5 output only                     |    1 |       |           |       |
|   using O6 output only                     |  938 |       |           |       |
|   using O5 and O6                          |  601 |       |           |       |
| LUT as Memory                              |    0 |     0 |     19000 |  0.00 |
|   LUT as Distributed RAM                   |    0 |     0 |           |       |
|   LUT as Shift Register                    |    0 |     0 |           |       |
| Slice Registers                            |  669 |     0 |    126800 |  0.53 |
|   Register driven from within the Slice    |  531 |       |           |       |
|   Register driven from outside the Slice   |  138 |       |           |       |
|     LUT in front of the register is unused |   53 |       |           |       |
|     LUT in front of the register is used   |   85 |       |           |       |
| Unique Control Sets                        |   69 |       |     15850 |  0.44 |
+--------------------------------------------+------+-------+-----------+-------+
* * Note: Available Control Sets calculated as Slice * 1, Review the Control Sets Report for more information regarding control sets.


3. Memory
---------

+-------------------+------+-------+-----------+-------+
|     Site Type     | Used | Fixed | Available | Util% |
+-------------------+------+-------+-----------+-------+
| Block RAM Tile    | 14.5 |     0 |       135 | 10.74 |
|   RAMB36/FIFO*    |   12 |     0 |       135 |  8.89 |
|     RAMB36E1 only |   12 |       |           |       |
|   RAMB18          |    5 |     0 |       270 |  1.85 |
|     RAMB18E1 only |    5 |       |           |       |
+-------------------+------+-------+-----------+-------+
* Note: Each Block RAM Tile only has one FIFO logic available and therefore can accommodate only one FIFO36E1 or one FIFO18E1. However, if a FIFO18E1 occupies a Block RAM Tile, that tile can still accommodate a RAMB18E1


4. DSP
------

+-----------+------+-------+-----------+-------+
| Site Type | Used | Fixed | Available | Util% |
+-----------+------+-------+-----------+-------+
| DSPs      |    0 |     0 |       240 |  0.00 |
+-----------+------+-------+-----------+-------+


5. IO and GT Specific
---------------------

+-----------------------------+------+-------+-----------+-------+
|          Site Type          | Used | Fixed | Available | Util% |
+-----------------------------+------+-------+-----------+-------+
| Bonded IOB                  |   41 |    41 |       210 | 19.52 |
|   IOB Master Pads           |   18 |       |           |       |
|   IOB Slave Pads            |   20 |       |           |       |
| Bonded IPADs                |    0 |     0 |         2 |  0.00 |
| PHY_CONTROL                 |    0 |     0 |         6 |  0.00 |
| PHASER_REF                  |    0 |     0 |         6 |  0.00 |
| OUT_FIFO                    |    0 |     0 |        24 |  0.00 |
| IN_FIFO                     |    0 |     0 |        24 |  0.00 |
| IDELAYCTRL                  |    0 |     0 |         6 |  0.00 |
| IBUFDS                      |    0 |     0 |       202 |  0.00 |
| PHASER_OUT/PHASER_OUT_PHY   |    0 |     0 |        24 |  0.00 |
| PHASER_IN/PHASER_IN_PHY     |    0 |     0 |        24 |  0.00 |
| IDELAYE2/IDELAYE2_FINEDELAY |    0 |     0 |       300 |  0.00 |
| ILOGIC                      |    0 |     0 |       210 |  0.00 |
| OLOGIC                      |    0 |     0 |       210 |  0.00 |
+-----------------------------+------+-------+-----------+-------+


6. Clocking
-----------

+------------+------+-------+-----------+-------+
|  Site Type | Used | Fixed | Available | Util% |
+------------+------+-------+-----------+-------+
| BUFGCTRL   |    5 |     0 |        32 | 15.63 |
| BUFIO      |    0 |     0 |        24 |  0.00 |
| MMCME2_ADV |    1 |     0 |         6 | 16.67 |
| PLLE2_ADV  |    0 |     0 |         6 |  0.00 |
| BUFMRCE    |    0 |     0 |        12 |  0.00 |
| BUFHCE     |    0 |     0 |        96 |  0.00 |
| BUFR       |    0 |     0 |        24 |  0.00 |
+------------+------+-------+-----------+-------+


7. Specific Feature
-------------------

+-------------+------+-------+-----------+-------+
|  Site Type  | Used | Fixed | Available | Util% |
+-------------+------+-------+-----------+-------+
| BSCANE2     |    0 |     0 |         4 |  0.00 |
| CAPTUREE2   |    0 |     0 |         1 |  0.00 |
| DNA_PORT    |    0 |     0 |         1 |  0.00 |
| EFUSE_USR   |    0 |     0 |         1 |  0.00 |
| FRAME_ECCE2 |    0 |     0 |         1 |  0.00 |
| ICAPE2      |    0 |     0 |         2 |  0.00 |
| PCIE_2_1    |    0 |     0 |         1 |  0.00 |
| STARTUPE2   |    0 |     0 |         1 |  0.00 |
| XADC        |    0 |     0 |         1 |  0.00 |
+-------------+------+-------+-----------+-------+


8. Primitives
-------------

+------------+------+---------------------+
|  Ref Name  | Used | Functional Category |
+------------+------+---------------------+
| LUT4       |  692 |                 LUT |
| FDRE       |  540 |        Flop & Latch |
| LUT2       |  431 |                 LUT |
| LUT6       |  421 |                 LUT |
| LUT5       |  351 |                 LUT |
| CARRY4     |  234 |          CarryLogic |
| LUT3       |  190 |                 LUT |
| LDCE       |   75 |        Flop & Latch |
| LUT1       |   56 |                 LUT |
| FDSE       |   38 |        Flop & Latch |
| OBUF       |   32 |                  IO |
| FDCE       |   16 |        Flop & Latch |
| MUXF7      |   13 |               MuxFx |
| RAMB36E1   |   12 |        Block Memory |
| IBUF       |    9 |                  IO |
| RAMB18E1   |    5 |        Block Memory |
| BUFG       |    5 |               Clock |
| MMCME2_ADV |    1 |               Clock |
+------------+------+---------------------+


9. Black Boxes
--------------

+----------+------+
| Ref Name | Used |
+----------+------+


10. Instantiated Netlists
-------------------------

+-----------------+------+
|     Ref Name    | Used |
+-----------------+------+
| yoshi_right_mem |    1 |
| yoshi_left_mem  |    1 |
| wall_mem        |    1 |
| platforms_mem   |    1 |
| ghost_right_mem |    1 |
| ghost_left_mem  |    1 |
| egg_mem         |    1 |
| clock_div       |    1 |
| background_mem  |    1 |
+-----------------+------+


