Copyright 1986-2020 Xilinx, Inc. All Rights Reserved.
------------------------------------------------------------------------------------------------------------------
| Tool Version : Vivado v.2020.2 (lin64) Build 3064766 Wed Nov 18 09:12:47 MST 2020
| Date         : Sun Dec  5 02:44:45 2021
| Host         : rsws13.kaust.edu.sa running 64-bit Ubuntu 18.04.6 LTS
| Command      : report_drc -file game_top_drc_routed.rpt -pb game_top_drc_routed.pb -rpx game_top_drc_routed.rpx
| Design       : game_top
| Device       : xc7a100tcsg324-1
| Speed File   : -1
| Design State : Fully Routed
------------------------------------------------------------------------------------------------------------------

Report DRC

Table of Contents
-----------------
1. REPORT SUMMARY
2. REPORT DETAILS

1. REPORT SUMMARY
-----------------
            Netlist: netlist
          Floorplan: design_1
      Design limits: <entire design considered>
           Ruledeck: default
             Max violations: <unlimited>
             Violations found: 9
+----------+----------+-----------------------------------------------------+------------+
| Rule     | Severity | Description                                         | Violations |
+----------+----------+-----------------------------------------------------+------------+
| CFGBVS-1 | Warning  | Missing CFGBVS and CONFIG_VOLTAGE Design Properties | 1          |
| PDRC-153 | Warning  | Gated clock check                                   | 8          |
+----------+----------+-----------------------------------------------------+------------+

2. REPORT DETAILS
-----------------
CFGBVS-1#1 Warning
Missing CFGBVS and CONFIG_VOLTAGE Design Properties  
Neither the CFGBVS nor CONFIG_VOLTAGE voltage property is set in the current_design.  Configuration bank voltage select (CFGBVS) must be set to VCCO or GND, and CONFIG_VOLTAGE must be set to the correct configuration voltage, in order to determine the I/O voltage support for the pins in bank 0.  It is suggested to specify these either using the 'Edit Device Properties' function in the GUI or directly in the XDC file using the following syntax:

 set_property CFGBVS value1 [current_design]
 #where value1 is either VCCO or GND

 set_property CONFIG_VOLTAGE value2 [current_design]
 #where value2 is the voltage provided to configuration bank 0

Refer to the device configuration user guide for more information.
Related violations: <none>

PDRC-153#1 Warning
Gated clock check  
Net draw1/ghost1_b__0 is a gated clock net sourced by a combinational pin draw1/ghost1_r_reg[3]_i_2/O, cell draw1/ghost1_r_reg[3]_i_2. This is not good design practice and will likely impact performance. For SLICE registers, for example, use the CE pin to control the loading of data.
Related violations: <none>

PDRC-153#2 Warning
Gated clock check  
Net draw1/ghost2_b__0 is a gated clock net sourced by a combinational pin draw1/ghost2_r_reg[3]_i_2/O, cell draw1/ghost2_r_reg[3]_i_2. This is not good design practice and will likely impact performance. For SLICE registers, for example, use the CE pin to control the loading of data.
Related violations: <none>

PDRC-153#3 Warning
Gated clock check  
Net draw1/ghost3_b__0 is a gated clock net sourced by a combinational pin draw1/ghost3_r_reg[3]_i_2/O, cell draw1/ghost3_r_reg[3]_i_2. This is not good design practice and will likely impact performance. For SLICE registers, for example, use the CE pin to control the loading of data.
Related violations: <none>

PDRC-153#4 Warning
Gated clock check  
Net draw1/ghost4_b__0 is a gated clock net sourced by a combinational pin draw1/ghost4_r_reg[3]_i_2/O, cell draw1/ghost4_r_reg[3]_i_2. This is not good design practice and will likely impact performance. For SLICE registers, for example, use the CE pin to control the loading of data.
Related violations: <none>

PDRC-153#5 Warning
Gated clock check  
Net logic2/led_b_reg/G0 is a gated clock net sourced by a combinational pin logic2/led_b_reg/L3_2/O, cell logic2/led_b_reg/L3_2 (in logic2/led_b_reg macro). This is not good design practice and will likely impact performance. For SLICE registers, for example, use the CE pin to control the loading of data.
Related violations: <none>

PDRC-153#6 Warning
Gated clock check  
Net logic2/led_r_reg/G0 is a gated clock net sourced by a combinational pin logic2/led_r_reg/L3_2/O, cell logic2/led_r_reg/L3_2 (in logic2/led_r_reg macro). This is not good design practice and will likely impact performance. For SLICE registers, for example, use the CE pin to control the loading of data.
Related violations: <none>

PDRC-153#7 Warning
Gated clock check  
Net logic3/next_egg_x_reg[10]_i_2_n_0 is a gated clock net sourced by a combinational pin logic3/next_egg_x_reg[10]_i_2/O, cell logic3/next_egg_x_reg[10]_i_2. This is not good design practice and will likely impact performance. For SLICE registers, for example, use the CE pin to control the loading of data.
Related violations: <none>

PDRC-153#8 Warning
Gated clock check  
Net logic3/x_option5__0 is a gated clock net sourced by a combinational pin logic3/next_egg_y_inferred__0/i_/O, cell logic3/next_egg_y_inferred__0/i_. This is not good design practice and will likely impact performance. For SLICE registers, for example, use the CE pin to control the loading of data.
Related violations: <none>


