Copyright 1986-2020 Xilinx, Inc. All Rights Reserved.
-------------------------------------------------------------------------------------
| Tool Version : Vivado v.2020.2 (lin64) Build 3064766 Wed Nov 18 09:12:47 MST 2020
| Date         : Sun Dec  5 02:44:22 2021
| Host         : rsws13.kaust.edu.sa running 64-bit Ubuntu 18.04.6 LTS
| Command      : report_control_sets -verbose -file game_top_control_sets_placed.rpt
| Design       : game_top
| Device       : xc7a100t
-------------------------------------------------------------------------------------

Control Set Information

Table of Contents
-----------------
1. Summary
2. Histogram
3. Flip-Flop Distribution
4. Detailed Control Set Information

1. Summary
----------

+----------------------------------------------------------+-------+
|                          Status                          | Count |
+----------------------------------------------------------+-------+
| Total control sets                                       |    69 |
|    Minimum number of control sets                        |    69 |
|    Addition due to synthesis replication                 |     0 |
|    Addition due to physical synthesis replication        |     0 |
| Unused register locations in slices containing registers |   275 |
+----------------------------------------------------------+-------+
* Control sets can be merged at opt_design using control_set_merge or merge_equivalent_drivers
** Run report_qor_suggestions for automated merging and remapping suggestions


2. Histogram
------------

+--------------------+-------+
|       Fanout       | Count |
+--------------------+-------+
| Total control sets |    69 |
| >= 0 to < 4        |     5 |
| >= 4 to < 6        |    14 |
| >= 6 to < 8        |    11 |
| >= 8 to < 10       |     5 |
| >= 10 to < 12      |    19 |
| >= 12 to < 14      |     5 |
| >= 14 to < 16      |     1 |
| >= 16              |     9 |
+--------------------+-------+
* Control sets can be remapped at either synth_design or opt_design


3. Flip-Flop Distribution
-------------------------

+--------------+-----------------------+------------------------+-----------------+--------------+
| Clock Enable | Synchronous Set/Reset | Asynchronous Set/Reset | Total Registers | Total Slices |
+--------------+-----------------------+------------------------+-----------------+--------------+
| No           | No                    | No                     |             174 |           76 |
| No           | No                    | Yes                    |               0 |            0 |
| No           | Yes                   | No                     |              28 |            9 |
| Yes          | No                    | No                     |             286 |           97 |
| Yes          | No                    | Yes                    |               0 |            0 |
| Yes          | Yes                   | No                     |             181 |           70 |
+--------------+-----------------------+------------------------+-----------------+--------------+


4. Detailed Control Set Information
-----------------------------------

+------------------------------------+---------------------------------------+----------------------------------+------------------+----------------+--------------+
|            Clock Signal            |             Enable Signal             |         Set/Reset Signal         | Slice Load Count | Bel Load Count | Bels / Slice |
+------------------------------------+---------------------------------------+----------------------------------+------------------+----------------+--------------+
|  logic2/led_r_reg/G0               |                                       |                                  |                1 |              1 |         1.00 |
|  seginterface/CLK                  |                                       |                                  |                1 |              1 |         1.00 |
|  clock_dividers/inst/clk_out1      | right_btn_IBUF                        | left_btn_IBUF                    |                1 |              1 |         1.00 |
|  logic2/led_b_reg/G0               |                                       |                                  |                1 |              1 |         1.00 |
|  seginterface/led_clk              |                                       |                                  |                1 |              3 |         3.00 |
|  sixtyhz_clk_reg_n_0_BUFG          | logic3/score_dig2[3]_i_2_n_0          | logic3/score_dig2[3]_i_1_n_0     |                1 |              4 |         4.00 |
|  sixtyhz_clk_reg_n_0_BUFG          | logic3/score_dig3[3]_i_2_n_0          | logic3/score_dig3[3]_i_1_n_0     |                1 |              4 |         4.00 |
|  sixtyhz_clk_reg_n_0_BUFG          | logic3/score_dig4[3]_i_2_n_0          | logic3/score_dig4[3]_i_1_n_0     |                1 |              4 |         4.00 |
|  clock_dividers/inst/clk_out1      | vga1/E[0]                             | draw1/row_count[5]_i_1_n_0       |                1 |              4 |         4.00 |
|  clock_dividers/inst/clk_out1      | vga1/egg_x_os_reg[3]                  | vga1/egg_x_os_reg[3]_0           |                2 |              4 |         2.00 |
|  seginterface/CLK                  | logic2/E[0]                           |                                  |                1 |              4 |         4.00 |
|  clock_dividers/inst/clk_out1      | vga1/within_reg_4[0]                  |                                  |                1 |              5 |         5.00 |
|  clock_dividers/inst/clk_out1      | vga1/within_reg_0[0]                  |                                  |                1 |              5 |         5.00 |
|  clock_dividers/inst/clk_out1      | vga1/curr_y_reg[6]_0[0]               |                                  |                1 |              5 |         5.00 |
|  clock_dividers/inst/clk_out1      | draw1/egg_x_os036_out                 | vga1/egg_mem_addr_reg[10]_i_3[0] |                1 |              5 |         5.00 |
|  clock_dividers/inst/clk_out1      | draw1/centerpl_y_os[4]_i_1_n_0        |                                  |                2 |              5 |         2.50 |
|  clock_dividers/inst/clk_out1      | draw1/topAndBottom_y_os[4]_i_1_n_0    |                                  |                1 |              5 |         5.00 |
|  clock_dividers/inst/clk_out1      | draw1/yoshi_x_os043_out               | vga1/SR[0]                       |                2 |              5 |         2.50 |
|  clock_dividers/inst/clk_out1      | draw1/rightpl_y_os[4]_i_1_n_0         |                                  |                1 |              5 |         5.00 |
|  clock_dividers/inst/clk_out1      | vga1/ghost1_x_os_reg[5][0]            |                                  |                2 |              6 |         3.00 |
|  clock_dividers/inst/clk_out1      | vga1/ghost4_x_os_reg[5]_i_5_0[0]      |                                  |                3 |              6 |         2.00 |
|  clock_dividers/inst/clk_out1      | vga1/within_reg_3[0]                  |                                  |                2 |              6 |         3.00 |
|  clock_dividers/inst/clk_out1      | vga1/within_reg_2[0]                  |                                  |                2 |              6 |         3.00 |
|  clock_dividers/inst/clk_out1      | vga1/yoshi_x_os_reg[3][0]             |                                  |                2 |              6 |         3.00 |
|  clock_dividers/inst/clk_out1      | vga1/ghost4_x_os_reg[5][0]            |                                  |                2 |              6 |         3.00 |
|  clock_dividers/inst/clk_out1      | vga1/ghost2_x_os_reg[5]_i_4_0[0]      |                                  |                3 |              6 |         2.00 |
|  clock_dividers/inst/clk_out1      | vga1/ghost2_x_os_reg[5][0]            |                                  |                2 |              6 |         3.00 |
|  clock_dividers/inst/clk_out1      | vga1/ghost1_x_os_reg[5]_i_4[0]        |                                  |                2 |              6 |         3.00 |
|  clock_dividers/inst/clk_out1      | vga1/ghost3_x_os_reg[5]_i_5[0]        |                                  |                2 |              6 |         3.00 |
|  clock_dividers/inst/clk_out1      | vga1/ghost3_x_os_reg[5][0]            |                                  |                3 |              6 |         2.00 |
|  sixtyhz_clk_reg_n_0_BUFG          | logic1/rst_3[0]                       | logic2/ghost4_y[9]_i_1_n_0       |                3 |              8 |         2.67 |
|  clock_dividers/inst/clk_out1      | draw1/bg_y_os[7]_i_1_n_0              |                                  |                3 |              8 |         2.67 |
|  sixtyhz_clk_reg_n_0_BUFG          | logic1/p_0_in_0                       | logic1/jmp_velocity[10]_i_1_n_0  |                4 |              8 |         2.00 |
|  sixtyhz_clk_reg_n_0_BUFG          | logic1/rst_4[0]                       | logic2/ghost4_y[9]_i_1_n_0       |                3 |              9 |         3.00 |
|  sixtyhz_clk_reg_n_0_BUFG          | logic1/rst_0[0]                       | logic2/ghost2_x[10]_i_1_n_0      |                6 |              9 |         1.50 |
|  sixtyhz_clk_reg_n_0_BUFG          | logic1/p_0_in_0                       |                                  |                4 |             10 |         2.50 |
|  clock_dividers/inst/clk_out1      | draw1/ghost_right_mem_addr[9]_i_1_n_0 |                                  |                5 |             10 |         2.00 |
|  clock_dividers/inst/clk_out1      | draw1/ghost_left_mem_addr[9]_i_1_n_0  |                                  |                6 |             10 |         1.67 |
|  sixtyhz_clk_reg_n_0_BUFG          | logic1/rst_2[0]                       | logic2/ghost3_x[10]_i_1_n_0      |                3 |             10 |         3.33 |
|  clock_dividers/inst/clk_out1      | vga1/vcount                           | rst_IBUF                         |                3 |             10 |         3.33 |
|  sixtyhz_clk_reg_n_0_BUFG          | logic1/E[0]                           | logic2/ghost1_y[9]_i_1_n_0       |                4 |             10 |         2.50 |
|  clock_dividers/inst/clk_out1      | vga1/curr_y_reg[6]_2[0]               |                                  |                4 |             10 |         2.50 |
|  clock_dividers/inst/clk_out1      | vga1/within_reg_1[0]                  |                                  |                5 |             10 |         2.00 |
|  sixtyhz_clk_reg_n_0_BUFG          | logic2/ghost2_x_close7_out            | logic2/ghost2_x[10]_i_1_n_0      |                4 |             10 |         2.50 |
|  sixtyhz_clk_reg_n_0_BUFG          | logic1/yoshi_x[10]_i_1_n_0            | rst_IBUF                         |                3 |             10 |         3.33 |
|  clock_dividers/inst/clk_out1      | vga1/curr_y[9]_i_1_n_0                | rst_IBUF                         |                4 |             10 |         2.50 |
|  clock_dividers/inst/clk_out1      | vga1/hcount_reg[9]_0                  | rst_IBUF                         |                5 |             11 |         2.20 |
|  clock_dividers/inst/clk_out1      |                                       | rst_IBUF                         |                5 |             11 |         2.20 |
|  sixtyhz_clk_reg_n_0_BUFG          | logic1/rst[0]                         | logic2/ghost1_y[9]_i_1_n_0       |                4 |             11 |         2.75 |
|  clock_dividers/inst/clk_out1      | draw1/yoshi_left_mem_addr             |                                  |                3 |             11 |         3.67 |
|  clock_dividers/inst/clk_out1      | draw1/yoshi_right_mem_addr            |                                  |                3 |             11 |         3.67 |
|  sixtyhz_clk_reg_n_0_BUFG          | logic1/rst_1[0]                       | logic2/ghost3_x[10]_i_1_n_0      |                5 |             11 |         2.20 |
|  clock_dividers/inst/clk_out1      | draw1/egg_x_os036_out                 |                                  |                4 |             11 |         2.75 |
|  logic3/next_egg_x_reg[10]_i_2_n_0 |                                       |                                  |                3 |             11 |         3.67 |
|  draw1/ghost1_b__0                 |                                       |                                  |                6 |             12 |         2.00 |
|  draw1/ghost2_b__0                 |                                       |                                  |                4 |             12 |         3.00 |
|  draw1/ghost3_b__0                 |                                       |                                  |                5 |             12 |         2.40 |
|  draw1/ghost4_b__0                 |                                       |                                  |                3 |             12 |         4.00 |
|  clock_dividers/inst/clk_out1      | vga1/E[0]                             |                                  |                3 |             13 |         4.33 |
|  logic3/x_option5__0               |                                       |                                  |                5 |             14 |         2.80 |
|  clock_dividers/inst/clk_out1      | vga1/curr_y_reg[6]_3                  |                                  |                5 |             16 |         3.20 |
|  clock_dividers/inst/clk_out1      | vga1/pl_mem_addr1                     |                                  |                6 |             16 |         2.67 |
|  clock_dividers/inst/clk_out1      | vga1/curr_y_reg[6]_1                  |                                  |                5 |             16 |         3.20 |
|  clock_dividers/inst/clk_out2      |                                       | rst_IBUF                         |                4 |             17 |         4.25 |
|  sixtyhz_clk_reg_n_0_BUFG          | logic3/overlap                        | rst_IBUF                         |                9 |             23 |         2.56 |
|  clock_dividers/inst/clk_out3      |                                       |                                  |                7 |             26 |         3.71 |
|  clock_dividers/inst/clk_out1      |                                       |                                  |               16 |             27 |         1.69 |
|  clock_dividers/inst/clk_out1      | vga1/within                           |                                  |                8 |             34 |         4.25 |
|  sixtyhz_clk_reg_n_0_BUFG          |                                       |                                  |               23 |             42 |         1.83 |
+------------------------------------+---------------------------------------+----------------------------------+------------------+----------------+--------------+


