000000000000
000000000000
000000000000
000000000000
000000000000
000000000000
000000000000
000000000000
000000000000
000000000000
011001100110
011001100110
000000000000
000000000000
000000000000
000000000000
000000000000
000000000000
000000000000
000000000000
000000000000
000000000000
001100110011
001100110011
000000000000
000000000000
000000000000
000000000000
000000000000
000000000000
000000000000
000000000000
000000000000
000000000000
000000000000
000000000000
000000000000
000000000000
000000000000
000000000000
000000000000
000000000000
011001100110
011001100110
000000000000
000000000000
000000000000
000000000000
000000000000
000000000000
000000000000
000000000000
000000000000
000000000000
001100110011
001100110011
000000000000
000000000000
000000000000
000000000000
000000000000
000000000000
000000000000
000000000000
000000000000
000000000000
000000000000
000000000000
000000000000
000000000000
000000000000
000000000000
000000000000
000000000000
001100110011
001100110011
110011001100
110011001100
110011001100
110011001100
110011001100
110011001100
110011001100
110011001100
110011001100
110011001100
000000000000
000000000000
000000000000
000000000000
000000000000
000000000000
000000000000
000000000000
000000000000
000000000000
000000000000
000000000000
000000000000
000000000000
000000000000
000000000000
000000000000
000000000000
000000000000
000000000000
001100110011
001100110011
110011001100
110011001100
110011001100
110011001100
110011001100
110011001100
110011001100
110011001100
110011001100
110011001100
000000000000
000000000000
000000000000
000000000000
000000000000
000000000000
000000000000
000000000000
000000000000
000000000000
000000000000
000000000000
000000000000
000000000000
000000000000
000000000000
010001000100
010001000100
000000000000
000000000000
000000000000
000000000000
011001100110
011001100110
011001100110
011001100110
100110011001
100110011001
110011001100
110011001100
110011001100
110011001100
110011001100
110011001100
011101110111
011101110111
000000000000
000000000000
010001000100
010001000100
000000000000
000000000000
000000000000
000000000000
000000000000
000000000000
000000000000
000000000000
010001000100
010001000100
000000000000
000000000000
000000000000
000000000000
011001100110
011001100110
011001100110
011001100110
100110011001
100110011001
110011001100
110011001100
110011001100
110011001100
110011001100
110011001100
011101110111
011101110111
000000000000
000000000000
010001000100
010001000100
000000000000
000000000000
000000000000
000000000000
000000000000
000000000000
010001000100
010001000100
000000000000
000000000000
110011001100
110011001100
110011001100
110011001100
000000000000
000000000000
000000000000
000000000000
000000000000
000000000000
111111111111
111111111111
110011001100
110011001100
110011001100
110011001100
110011001100
110011001100
110011001100
110011001100
000000000000
000000000000
000000000000
000000000000
000000000000
000000000000
000000000000
000000000000
010001000100
010001000100
000000000000
000000000000
110011001100
110011001100
110011001100
110011001100
000000000000
000000000000
000000000000
000000000000
000000000000
000000000000
111111111111
111111111111
110011001100
110011001100
110011001100
110011001100
110011001100
110011001100
110011001100
110011001100
000000000000
000000000000
000000000000
000000000000
000000000000
000000000000
001100110011
001100110011
000000000000
000000000000
110011001100
110011001100
111111111111
111111111111
111111111111
111111111111
000000000000
000000000000
000000000000
000000000000
111111111111
111111111111
111111111111
111111111111
000000000000
000000000000
000000000000
000000000000
000000000000
000000000000
111111111111
111111111111
000000000000
000000000000
001100110011
001100110011
000000000000
000000000000
000000000000
000000000000
110011001100
110011001100
111111111111
111111111111
111111111111
111111111111
111111111111
111111111111
000000000000
000000000000
000000000000
000000000000
000000000000
000000000000
111111111111
111111111111
111111111111
111111111111
000000000000
000000000000
000000000000
000000000000
111111111111
111111111111
110011001100
110011001100
000000000000
000000000000
000000000000
000000000000
000000000000
000000000000
110011001100
110011001100
111111111111
111111111111
111111111111
111111111111
111111111111
111111111111
000000000000
000000000000
000000000000
000000000000
000000000000
000000000000
111111111111
111111111111
111111111111
111111111111
000000000000
000000000000
000000000000
000000000000
111111111111
111111111111
110011001100
110011001100
000000000000
000000000000
000000000000
000000000000
110011001100
110011001100
111111111111
111111111111
111111111111
111111111111
111111111111
111111111111
111111111111
111111111111
111111111111
111111111111
111111111111
111111111111
111111111111
111111111111
111111111111
111111111111
000000000000
000000000000
000000000000
000000000000
000000000000
000000000000
111111111111
111111111111
110011001100
110011001100
000000000000
000000000000
000000000000
000000000000
110011001100
110011001100
111111111111
111111111111
111111111111
111111111111
111111111111
111111111111
111111111111
111111111111
111111111111
111111111111
111111111111
111111111111
111111111111
111111111111
111111111111
111111111111
000000000000
000000000000
000000000000
000000000000
000000000000
000000000000
111111111111
111111111111
110011001100
110011001100
000000000000
000000000000
110011001100
110011001100
000000000000
000000000000
000000000000
000000000000
000000000000
000000000000
111111111111
111111111111
111111111111
111111111111
111111111111
111111111111
111111111111
111111111111
111111111111
111111111111
111111111111
111111111111
111111111111
111111111111
111111111111
111111111111
111111111111
111111111111
111111111111
111111111111
110011001100
110011001100
000000000000
000000000000
110011001100
110011001100
000000000000
000000000000
000000000000
000000000000
000000000000
000000000000
111111111111
111111111111
111111111111
111111111111
111111111111
111111111111
111111111111
111111111111
111111111111
111111111111
111111111111
111111111111
111111111111
111111111111
111111111111
111111111111
111111111111
111111111111
111111111111
111111111111
110011001100
110011001100
000000000000
000000000000
000000000000
000000000000
000000000000
000000000000
110011001100
110011001100
111111111111
111111111111
111111111111
111111111111
000000000000
000000000000
111111111111
111111111111
111111111111
111111111111
111111111111
111111111111
111111111111
111111111111
101000110011
101000110011
101000110011
101000110011
111111111111
111111111111
000000000000
000000000000
110011001100
110011001100
000000000000
000000000000
000000000000
000000000000
000000000000
000000000000
110011001100
110011001100
111111111111
111111111111
111111111111
111111111111
000000000000
000000000000
000000000000
000000000000
111111111111
111111111111
111111111111
111111111111
101000110011
101000110011
101000110011
101000110011
101000110011
101000110011
101000110011
101000110011
000000000000
000000000000
110011001100
110011001100
000000000000
000000000000
000000000000
000000000000
000000000000
000000000000
110011001100
110011001100
111111111111
111111111111
111111111111
111111111111
000000000000
000000000000
000000000000
000000000000
111111111111
111111111111
111111111111
111111111111
101000110011
101000110011
101000110011
101000110011
101000110011
101000110011
101000110011
101000110011
000000000000
000000000000
110011001100
110011001100
000000000000
000000000000
000000000000
000000000000
110011001100
110011001100
000000000000
000000000000
111111111111
111111111111
111111111111
111111111111
000000000000
000000000000
000000000000
000000000000
000000000000
000000000000
000000000000
000000000000
101000110011
101000110011
101000110011
101000110011
101000110011
101000110011
101000110011
101000110011
000000000000
000000000000
110011001100
110011001100
000000000000
000000000000
000000000000
000000000000
110011001100
110011001100
000000000000
000000000000
111111111111
111111111111
111111111111
111111111111
000000000000
000000000000
000000000000
000000000000
000000000000
000000000000
000000000000
000000000000
101000110011
101000110011
101000110011
101000110011
101000110011
101000110011
101000110011
101000110011
000000000000
000000000000
110011001100
110011001100
000000000000
000000000000
001100110011
001100110011
000000000000
000000000000
100010001000
100010001000
000000000000
000000000000
111111111111
111111111111
111111111111
111111111111
000000000000
000000000000
000000000000
000000000000
101000110011
101000110011
101000110011
101000110011
101000110011
101000110011
101000110011
101000110011
000000000000
000000000000
111111111111
111111111111
110011001100
110011001100
000000000000
000000000000
001100110011
001100110011
000000000000
000000000000
100010001000
100010001000
000000000000
000000000000
111111111111
111111111111
111111111111
111111111111
000000000000
000000000000
000000000000
000000000000
101000110011
101000110011
101000110011
101000110011
101000110011
101000110011
101000110011
101000110011
000000000000
000000000000
111111111111
111111111111
110011001100
110011001100
000000000000
000000000000
000000000000
000000000000
011001100110
011001100110
110011001100
110011001100
111111111111
111111111111
111111111111
111111111111
111111111111
111111111111
111111111111
111111111111
000000000000
000000000000
000000000000
000000000000
000000000000
000000000000
000000000000
000000000000
000000000000
000000000000
111111111111
111111111111
111111111111
111111111111
110011001100
110011001100
000000000000
000000000000
000000000000
000000000000
011001100110
011001100110
110011001100
110011001100
111111111111
111111111111
111111111111
111111111111
111111111111
111111111111
111111111111
111111111111
000000000000
000000000000
000000000000
000000000000
000000000000
000000000000
000000000000
000000000000
000000000000
000000000000
111111111111
111111111111
111111111111
111111111111
110011001100
110011001100
000000000000
000000000000
000000000000
000000000000
110011001100
110011001100
111111111111
111111111111
111111111111
111111111111
111111111111
111111111111
111111111111
111111111111
111111111111
111111111111
111111111111
111111111111
111111111111
111111111111
111111111111
111111111111
111111111111
111111111111
111111111111
111111111111
111111111111
111111111111
110011001100
110011001100
000000000000
000000000000
001100110011
001100110011
010001000100
010001000100
000000000000
000000000000
110011001100
110011001100
111111111111
111111111111
111111111111
111111111111
111111111111
111111111111
111111111111
111111111111
111111111111
111111111111
111111111111
111111111111
111111111111
111111111111
111111111111
111111111111
111111111111
111111111111
111111111111
111111111111
110011001100
110011001100
000000000000
000000000000
000000000000
000000000000
010001000100
010001000100
000000000000
000000000000
110011001100
110011001100
111111111111
111111111111
111111111111
111111111111
111111111111
111111111111
111111111111
111111111111
111111111111
111111111111
111111111111
111111111111
111111111111
111111111111
111111111111
111111111111
111111111111
111111111111
111111111111
111111111111
110011001100
110011001100
000000000000
000000000000
000000000000
000000000000
000000000000
000000000000
010001000100
010001000100
000000000000
000000000000
110011001100
110011001100
110011001100
110011001100
110011001100
110011001100
111111111111
111111111111
111111111111
111111111111
111111111111
111111111111
111111111111
111111111111
111111111111
111111111111
110011001100
110011001100
110011001100
110011001100
000000000000
000000000000
010001000100
010001000100
000000000000
000000000000
000000000000
000000000000
010001000100
010001000100
000000000000
000000000000
110011001100
110011001100
110011001100
110011001100
110011001100
110011001100
111111111111
111111111111
111111111111
111111111111
111111111111
111111111111
111111111111
111111111111
111111111111
111111111111
110011001100
110011001100
110011001100
110011001100
000000000000
000000000000
010001000100
010001000100
000000000000
000000000000
000000000000
000000000000
000000000000
000000000000
010001000100
010001000100
000000000000
000000000000
000000000000
000000000000
110011001100
110011001100
110011001100
110011001100
110011001100
110011001100
110011001100
110011001100
110011001100
110011001100
110011001100
110011001100
000000000000
000000000000
000000000000
000000000000
010001000100
010001000100
000000000000
000000000000
000000000000
000000000000
000000000000
000000000000
000000000000
000000000000
010001000100
010001000100
000000000000
000000000000
000000000000
000000000000
110011001100
110011001100
110011001100
110011001100
110011001100
110011001100
110011001100
110011001100
110011001100
110011001100
110011001100
110011001100
000000000000
000000000000
000000000000
000000000000
010001000100
010001000100
000000000000
000000000000
000000000000
000000000000
000000000000
000000000000
000000000000
000000000000
000000000000
000000000000
000000000000
000000000000
001100110011
001100110011
000000000000
000000000000
000000000000
000000000000
000000000000
000000000000
000000000000
000000000000
000000000000
000000000000
000000000000
000000000000
001100110011
001100110011
000000000000
000000000000
000000000000
000000000000
000000000000
000000000000
000000000000
000000000000
